[gd_scene load_steps=5 format=2]

[ext_resource path="res://AudioNodes/RevealedItems/Revealed_Item.gd" type="Script" id=1]
[ext_resource path="res://Sprites/Revealed/person_small_a.png" type="Texture" id=2]


[sub_resource type="Animation" id=1]
resource_name = "anim"
loop = true
tracks/0/type = "value"
tracks/0/path = NodePath(".:frame")
tracks/0/interp = 1
tracks/0/loop_wrap = true
tracks/0/imported = false
tracks/0/enabled = true
tracks/0/keys = {
"times": PoolRealArray( 0, 1 ),
"transitions": PoolRealArray( 1, 1 ),
"update": 0,
"values": [ 0, 7 ]
}

[sub_resource type="BoxShape" id=2]

[node name="Revealed_Item" type="Sprite3D"]
billboard = 2
alpha_cut = 2
texture = ExtResource( 2 )
vframes = 3
hframes = 3
frame = 4
script = ExtResource( 1 )

[node name="AnimationPlayer" type="AnimationPlayer" parent="."]
autoplay = "anim"
anims/anim = SubResource( 1 )

[node name="Area" type="Area" parent="."]
transform = Transform( 0.819207, 0, 0, 0, 1.58715, 0, 0, 0, 0.0892732, 0.104286, -0.443216, 0 )
collision_layer = 2

[node name="CollisionShape" type="CollisionShape" parent="Area"]
shape = SubResource( 2 )
[connection signal="is_touched" from="." to="." method="_on_Revealed_Item_is_touched"]
[connection signal="is_untouched" from="." to="." method="_on_Revealed_Item_is_untouched"]
