[gd_scene load_steps=6 format=2]

[ext_resource path="res://Unused_ref/LandscapeElements/_old/City_prototype.tscn" type="PackedScene" id=1]
[ext_resource path="res://Player/Player_XR/PlayerController_XR.tscn" type="PackedScene" id=2]
[ext_resource path="res://Main.gd" type="Script" id=3]
[ext_resource path="res://Environment/WorldEnvironment_XR.tres" type="Environment" id=4]







[sub_resource type="PlaneMesh" id=1]

[node name="CityLandscape_VR" type="Spatial"]
script = ExtResource( 3 )

[node name="PlayerController_XR" parent="." instance=ExtResource( 2 )]

[node name="DirectionalLight" type="DirectionalLight" parent="."]
transform = Transform( 0.236507, -0.394767, 0.887819, -0.0549995, 0.906838, 0.417875, -0.970072, -0.14766, 0.192762, 0, 0, 0 )

[node name="WorldEnvironment_XR" type="WorldEnvironment" parent="."]
environment = ExtResource( 4 )

[node name="VantagePoint" type="Node" parent="."]

[node name="Floor" type="MeshInstance" parent="VantagePoint"]
transform = Transform( 1, 0, 0, 0, 1, 0, 0, 0, 1, 0, -0.0203331, 0 )
mesh = SubResource( 1 )
material/0 = null

[node name="Landscape" parent="." instance=ExtResource( 1 )]
