[gd_scene load_steps=4 format=2]

[ext_resource path="res://NPCs/NeighborC_model/NeighborC6_iPiSoft_export_cleanup.glb" type="PackedScene" id=1]
[ext_resource path="res://Materials/black_material.tres" type="Material" id=2]
[ext_resource path="res://NPCs/Neighbor.gd" type="Script" id=3]

[node name="NeighborC6_iPiSoft_export_cleanup" groups=[
"neighbors",
] instance=ExtResource( 1 )]
script = ExtResource( 3 )

[node name="female_elegantsuit01Mesh" parent="Game_engine/Skeleton" index="0"]
material/0 = ExtResource( 2 )

[node name="low-polyMesh" parent="Game_engine/Skeleton" index="1"]
material/0 = ExtResource( 2 )

[node name="neighborc_makehuman_exportMesh" parent="Game_engine/Skeleton" index="2"]
material/0 = ExtResource( 2 )

[node name="ponytail01Mesh" parent="Game_engine/Skeleton" index="3"]
material/0 = ExtResource( 2 )

[node name="AnimationPlayer" parent="." index="1"]
autoplay = "cropped_anim"
