[gd_scene load_steps=5 format=2]

[ext_resource path="res://AudioNodes/RevealedItems/Revealed_Item.gd" type="Script" id=1]
[ext_resource path="res://Sprites/Revealed/vignette_c/vignette_c_bush.png" type="Texture" id=2]

[sub_resource type="Animation" id=25]
resource_name = "anim"
length = 2.0
loop = true
tracks/0/type = "value"
tracks/0/path = NodePath(".:frame")
tracks/0/interp = 1
tracks/0/loop_wrap = true
tracks/0/imported = false
tracks/0/enabled = true
tracks/0/keys = {
"times": PoolRealArray( 0, 2 ),
"transitions": PoolRealArray( 1, 1 ),
"update": 0,
"values": [ 0, 7 ]
}

[sub_resource type="BoxShape" id=26]

[node name="Revealed_Item" type="Sprite3D"]
alpha_cut = 2
texture = ExtResource( 2 )
vframes = 3
hframes = 3
frame = 4
script = ExtResource( 1 )

[node name="AnimationPlayer" type="AnimationPlayer" parent="."]
autoplay = "anim"
anims/anim = SubResource( 25 )

[node name="Area" type="Area" parent="."]
transform = Transform( 1.09807, 0, 0, 0, 0.803252, 0, 0, 0, 0.148707, 0, 0.306544, 0 )
collision_layer = 2

[node name="CollisionShape" type="CollisionShape" parent="Area"]
shape = SubResource( 26 )
[connection signal="is_touched" from="." to="." method="_on_Revealed_Item_is_touched"]
[connection signal="is_untouched" from="." to="." method="_on_Revealed_Item_is_untouched"]
