[gd_resource type="Environment" load_steps=2 format=2]

[sub_resource type="ProceduralSky" id=1]
sky_top_color = Color( 0.145098, 0.231373, 0.380392, 1 )
sky_horizon_color = Color( 0.372549, 0.301961, 0.270588, 1 )
ground_bottom_color = Color( 0.12549, 0.133333, 0.14902, 1 )
ground_horizon_color = Color( 0.231373, 0.215686, 0.188235, 1 )
ground_curve = 0.005
sun_color = Color( 0.960784, 0.949448, 0.670588, 1 )
sun_latitude = 2.0
sun_angle_max = 68.32
sun_curve = 0.0637281

[resource]
background_mode = 2
background_sky = SubResource( 1 )
background_color = Color( 0.243137, 0.243137, 0.243137, 1 )
fog_color = Color( 0.243137, 0.243137, 0.243137, 1 )
fog_sun_color = Color( 0.0588235, 0.101961, 0.141176, 1 )
fog_sun_amount = 1.0
fog_depth_end = 1078.7
fog_transmit_enabled = true
fog_height_enabled = true
fog_height_max = 269.7
dof_blur_far_quality = 2
