[gd_scene load_steps=2 format=2]

[sub_resource type="CubeMesh" id=2]

[node name="Building_spot" type="Spatial"]
transform = Transform( 1, 0, 0, 0, 1, 0, 0, 0, 1, 0, -8.70105, -17.2587 )

[node name="Building" type="MeshInstance" parent="."]
transform = Transform( 1, 0, 0, 0, 5.7829, 0, 0, 0, 1, 0, 5.70905, -0.0427284 )
mesh = SubResource( 2 )
material/0 = null
__meta__ = {
"_editor_description_": "d"
}
