[gd_scene format=2]

[node name="Sun" type="DirectionalLight"]
transform = Transform( -0.0873779, -0.276496, 0.957035, 0.80268, 0.549428, 0.23202, -0.589974, 0.788466, 0.17393, 2.22308, 0.82914, 0.427382 )
light_color = Color( 0.960784, 0.819608, 0.670588, 1 )
light_energy = 0.25
shadow_enabled = true
