# This file uses centimeters as units for non-parametric coordinates.

mtllib Chair.mtl
g default
v -1.805556 3.876285 1.910299
v 1.805556 3.876285 1.910299
v -1.805556 4.581216 1.910299
v 1.805556 4.581216 1.910299
v -1.404321 4.581216 -1.415248
v 1.404321 4.581216 -1.415248
v -1.404321 3.876285 -1.391291
v 1.404321 3.876285 -1.391291
v -2.246914 4.581216 2.643200
v 2.246914 4.581216 2.643200
v 1.747600 4.581216 -1.396662
v -1.747600 4.581216 -1.396662
v -2.246914 4.749633 2.643200
v 2.246914 4.749633 2.643200
v 1.747600 4.749633 -1.401919
v -1.747600 4.749633 -1.401919
v -1.797531 4.581216 2.643200
v -1.797531 4.749633 2.643200
v -1.398080 4.749633 -1.426901
v -1.398080 4.581216 -1.415676
v 1.842469 4.581216 2.643200
v 1.842469 4.749633 2.643200
v 1.402849 4.749633 -1.426492
v 1.402849 4.581216 -1.415248
v -2.246914 4.581216 1.910299
v -2.246914 4.749633 1.910299
v -1.797531 4.749633 1.910299
v 1.834708 4.749633 1.910299
v 2.246914 4.749633 1.910299
v 2.246914 4.581216 1.910299
v -1.404321 4.581216 -2.045139
v 1.404321 4.581216 -2.045139
v 1.404321 3.876285 -1.987446
v -1.404321 3.876285 -1.987446
v 1.715432 4.581216 -1.397909
v 1.715432 3.876285 -1.391291
v 1.715432 3.876285 -1.987446
v 1.715432 4.581216 -2.027477
v -1.715432 4.581216 -1.397909
v -1.715432 3.876285 -1.391291
v -1.715432 4.581216 -2.027477
v -1.715432 3.876285 -1.987446
v 1.404321 5.873112 -1.701606
v 1.404321 5.873112 -2.261853
v 1.715432 5.873112 -1.658398
v 1.715432 5.873112 -2.218645
v -1.404321 5.873112 -1.701606
v -1.404321 5.873112 -2.261853
v -1.715432 5.873112 -2.218645
v -1.715432 5.873112 -1.658398
v 1.404321 6.230101 -1.937257
v 1.404321 6.230101 -2.398709
v 1.715432 6.230101 -1.894049
v 1.715432 6.230101 -2.355501
v -1.404321 6.230101 -1.937257
v -1.404321 6.230101 -2.398709
v -1.715432 6.230101 -2.355501
v -1.715432 6.230101 -1.894049
v 1.404321 7.374794 -2.225898
v 1.404321 7.367980 -2.628141
v 1.715432 7.369954 -2.132832
v 1.715432 7.364931 -2.543515
v -1.404321 7.374794 -2.225898
v -1.404321 7.367980 -2.628141
v -1.715432 7.364931 -2.543515
v -1.715432 7.369954 -2.132832
v 1.404321 9.010454 -2.774994
v 1.404321 9.006421 -3.022417
v 1.715432 9.012843 -2.614071
v 1.715432 9.009437 -2.889519
v -1.404321 9.010454 -2.774994
v -1.404321 9.006421 -3.022417
v -1.715432 9.009437 -2.889519
v -1.715432 9.012843 -2.614071
v 1.404321 9.896654 -2.928797
v 1.404321 9.883451 -3.174476
v 1.715432 9.901135 -2.803823
v 1.715432 9.889348 -3.077203
v -1.404321 9.896654 -2.928797
v -1.404321 9.883451 -3.174476
v -1.715432 9.889348 -3.077203
v -1.715432 9.901135 -2.803823
v -2.246914 4.749633 0.851885
v -2.246914 4.581216 0.851885
v -1.805556 4.581216 0.851885
v -1.805556 3.876285 0.851885
v 1.805556 3.876285 0.851885
v 1.805556 4.581216 0.851885
v 2.246914 4.581216 0.851885
v 2.246914 4.749633 0.851885
v 1.824756 4.749633 0.851885
v -1.797531 4.749633 0.851885
v -2.072154 4.749633 -0.401666
v -2.072154 4.581216 -0.401666
v -1.665123 4.581216 -0.401666
v -1.665123 3.876285 -0.401666
v 1.665123 3.876285 -0.401666
v 1.665123 4.581216 -0.401666
v 2.072154 4.581216 -0.401666
v 2.072154 4.749633 -0.401666
v 1.671960 4.749633 -0.402100
v -1.657723 4.749633 -0.402100
v 1.842469 4.452297 2.550073
v 1.842469 3.380479 2.576681
v 1.842469 2.281216 2.643200
v 1.842469 1.514550 2.643200
v 1.842469 0.747883 2.723023
v 1.842469 -0.018784 2.802846
v 2.172017 4.452297 2.550073
v 2.147051 3.380479 2.576681
v 2.122085 2.281216 2.643200
v 2.147051 1.514550 2.643200
v 2.147051 0.747883 2.723023
v 2.147051 -0.018784 2.802846
v 1.805556 4.452297 1.910299
v 1.805556 3.380479 1.843780
v 1.805556 2.281216 2.016730
v 1.805556 1.514550 2.149768
v 1.805556 0.747883 2.309414
v 1.805556 -0.018784 2.429148
v 2.172017 4.452297 1.910299
v 2.147051 3.380479 1.843780
v 2.122085 2.281216 2.016730
v 2.147051 1.514550 2.149768
v 2.147051 0.747883 2.309414
v 2.147051 -0.018784 2.429148
v -2.172017 4.452297 2.550073
v -2.147051 3.380479 2.576680
v -2.122085 2.281216 2.643198
v -2.147051 1.514550 2.643198
v -2.147051 0.747883 2.723020
v -2.147051 -0.018784 2.802842
v -2.172017 4.452297 1.910298
v -2.147051 3.380479 1.843779
v -2.122085 2.281216 2.016728
v -2.147051 1.514550 2.149765
v -2.147051 0.747883 2.309411
v -2.147051 -0.018784 2.429145
v -1.805556 4.452297 1.910298
v -1.805556 3.380479 1.843779
v -1.805556 2.281216 2.016728
v -1.805556 1.514550 2.149765
v -1.805556 0.747883 2.309411
v -1.805556 -0.018784 2.429145
v -1.797531 4.452297 2.550072
v -1.797531 3.380479 2.576679
v -1.797531 2.281216 2.643198
v -1.797531 1.514550 2.643198
v -1.797531 0.747883 2.723020
v -1.797531 -0.018784 2.802842
v 1.404321 3.096681 -1.399646
v 1.404321 2.317077 -1.439558
v 1.404321 1.537473 -1.511025
v 1.404321 0.757869 -1.656122
v 1.404321 -0.021735 -1.874850
v 1.404321 3.096681 -2.027357
v 1.404321 2.317077 -2.004157
v 1.404321 1.537473 -2.044069
v 1.404321 0.757869 -2.126055
v 1.404321 -0.021735 -2.187003
v 1.715432 3.096681 -2.027357
v 1.715432 2.317077 -2.004157
v 1.715432 1.537473 -2.044069
v 1.715432 0.757869 -2.126055
v 1.715432 -0.021735 -2.187003
v 1.715432 3.096681 -1.399646
v 1.715432 2.317077 -1.439558
v 1.715432 1.537473 -1.511025
v 1.715432 0.757869 -1.656122
v 1.715432 -0.021735 -1.874850
v -1.404321 3.096681 -1.399646
v -1.404321 2.317077 -1.439558
v -1.404321 1.537473 -1.511025
v -1.404321 0.757869 -1.656122
v -1.404321 -0.021735 -1.874850
v -1.404321 3.096681 -2.027357
v -1.404321 2.317077 -2.004157
v -1.404321 1.537473 -2.044069
v -1.404321 0.757869 -2.126055
v -1.404321 -0.021735 -2.187003
v -1.715432 3.096681 -1.399646
v -1.715432 2.317077 -1.439558
v -1.715432 1.537473 -1.511025
v -1.715432 0.757869 -1.656122
v -1.715432 -0.021735 -1.874850
v -1.715432 3.096681 -2.027357
v -1.715432 2.317077 -2.004157
v -1.715432 1.537473 -2.044069
v -1.715432 0.757869 -2.126055
v -1.715432 -0.021735 -2.187003
v 1.404321 9.033225 -2.585909
v 1.715432 9.034514 -2.406187
v 1.715432 9.949911 -2.535035
v 1.404321 9.947026 -2.683669
v -1.404321 9.033225 -2.585909
v -1.715432 9.034514 -2.406187
v -1.404321 9.947026 -2.683669
v -1.715432 9.949911 -2.535035
v 1.054321 9.003189 -2.957693
v 0.704321 8.992661 -3.105284
v 0.354321 8.981424 -3.199122
v 0.000000 8.971766 -3.231135
v 1.054321 9.880131 -3.072519
v 0.704321 9.854904 -3.191462
v 0.354321 9.825468 -3.267855
v 0.000000 9.797671 -3.296483
v 1.054321 9.026723 -2.794317
v 0.704321 9.016020 -2.965639
v 0.354321 9.003888 -3.074411
v 0.000000 8.993217 -3.111730
v 1.054321 9.933115 -2.858805
v 0.704321 9.907380 -3.005556
v 0.354321 9.875818 -3.101374
v 0.000000 9.845653 -3.137318
v -1.054321 9.003189 -2.957693
v -0.704321 8.992661 -3.105284
v -0.354321 8.981423 -3.199122
v -1.054321 9.880131 -3.072519
v -0.704321 9.854903 -3.191462
v -0.354321 9.825467 -3.267855
v -1.054321 9.933115 -2.858805
v -0.704321 9.907378 -3.005556
v -0.354321 9.875817 -3.101374
v -1.054321 9.026723 -2.794317
v -0.704321 9.016020 -2.965639
v -0.354321 9.003887 -3.074411
v 2.015432 9.012058 -2.476326
v 2.015432 9.895970 -2.681543
v 2.015432 9.945483 -2.415018
v 2.015432 9.033651 -2.270695
v -2.015432 9.012058 -2.476326
v -2.015432 9.895970 -2.681543
v -2.015432 9.033651 -2.270695
v -2.015432 9.945483 -2.415018
v 2.115432 9.115149 -2.468102
v 2.115432 9.801768 -2.630790
v 2.115432 9.840601 -2.423991
v 2.115432 9.131879 -2.309092
v -2.115432 9.115149 -2.468102
v -2.115432 9.801768 -2.630790
v -2.115432 9.131879 -2.309092
v -2.115432 9.840601 -2.423991
v 1.069167 5.873112 -1.804915
v -0.000000 5.873112 -1.851787
v 1.069167 5.873112 -2.365161
v 0.000000 5.873112 -2.412034
v 1.069167 6.230101 -2.040566
v 0.000000 6.230101 -2.087438
v 1.069167 6.230101 -2.502017
v 0.000000 6.230101 -2.548890
v -1.026924 5.873112 -1.804915
v -1.026924 5.873112 -2.365161
v -1.026924 6.230101 -2.502017
v -1.026924 6.230101 -2.040566
v 0.016507 7.417092 -2.488719
v 0.016507 7.433160 -2.833042
v 0.181231 7.622032 -2.841716
v 0.181231 7.606894 -2.506928
v -0.171818 7.624401 -2.542997
v -0.171818 7.634290 -2.848644
v -0.003818 7.825772 -2.901771
v -0.003818 7.817290 -2.609925
vt 0.375000 0.000000
vt 0.625000 0.000000
vt 0.375000 0.250000
vt 0.625000 0.250000
vt 0.375000 0.500000
vt 0.625000 0.500000
vt 0.375000 0.750000
vt 0.625000 0.750000
vt 0.375000 1.000000
vt 0.625000 1.000000
vt 0.875000 0.000000
vt 0.875000 0.250000
vt 0.125000 0.000000
vt 0.125000 0.250000
vt 0.375000 0.250000
vt 0.625000 0.250000
vt 0.625000 0.500000
vt 0.375000 0.500000
vt 0.375000 0.250000
vt 0.625000 0.250000
vt 0.625000 0.500000
vt 0.375000 0.500000
vt 0.400000 0.250000
vt 0.400000 0.250000
vt 0.410179 0.500000
vt 0.400000 0.500000
vt 0.602500 0.250000
vt 0.602500 0.250000
vt 0.599125 0.500000
vt 0.600341 0.500000
vt 0.375000 0.300000
vt 0.375000 0.300000
vt 0.402036 0.300000
vt 0.601825 0.300000
vt 0.625000 0.300000
vt 0.625000 0.300000
vt 0.375000 0.500000
vt 0.625000 0.500000
vt 0.625000 0.750000
vt 0.375000 0.750000
vt 0.625000 0.500000
vt 0.625000 0.750000
vt 0.625000 0.750000
vt 0.625000 0.500000
vt 0.375000 0.750000
vt 0.375000 0.500000
vt 0.375000 0.500000
vt 0.375000 0.750000
vt 0.625000 0.500000
vt 0.625000 0.500000
vt 0.625000 0.500000
vt 0.625000 0.500000
vt 0.375000 0.500000
vt 0.375000 0.500000
vt 0.375000 0.500000
vt 0.375000 0.500000
vt 0.625000 0.500000
vt 0.625000 0.500000
vt 0.625000 0.500000
vt 0.625000 0.500000
vt 0.375000 0.500000
vt 0.375000 0.500000
vt 0.375000 0.500000
vt 0.375000 0.500000
vt 0.625000 0.500000
vt 0.625000 0.500000
vt 0.625000 0.500000
vt 0.625000 0.500000
vt 0.375000 0.500000
vt 0.375000 0.500000
vt 0.375000 0.500000
vt 0.375000 0.500000
vt 0.625000 0.500000
vt 0.625000 0.500000
vt 0.625000 0.500000
vt 0.625000 0.500000
vt 0.375000 0.500000
vt 0.375000 0.500000
vt 0.375000 0.500000
vt 0.375000 0.500000
vt 0.625000 0.500000
vt 0.625000 0.500000
vt 0.625000 0.500000
vt 0.625000 0.500000
vt 0.375000 0.500000
vt 0.375000 0.500000
vt 0.375000 0.500000
vt 0.375000 0.500000
vt 0.375000 0.364115
vt 0.375000 0.364115
vt 0.294856 0.250000
vt 0.375000 0.330144
vt 0.294856 0.000000
vt 0.375000 0.919856
vt 0.625000 0.919856
vt 0.705144 0.000000
vt 0.625000 0.330144
vt 0.705144 0.250000
vt 0.625000 0.364115
vt 0.625000 0.364115
vt 0.600959 0.364115
vt 0.404646 0.364115
vt 0.375000 0.440052
vt 0.375000 0.440052
vt 0.199935 0.250000
vt 0.375000 0.425065
vt 0.199935 0.000000
vt 0.375000 0.824935
vt 0.625000 0.824935
vt 0.800065 0.000000
vt 0.625000 0.425065
vt 0.800065 0.250000
vt 0.625000 0.440052
vt 0.625000 0.440052
vt 0.599934 0.440052
vt 0.407738 0.440052
vt 0.625000 0.250000
vt 0.625000 0.250000
vt 0.625000 0.250000
vt 0.625000 0.250000
vt 0.625000 0.250000
vt 0.625000 0.250000
vt 0.602500 0.250000
vt 0.602500 0.250000
vt 0.602500 0.250000
vt 0.602500 0.250000
vt 0.602500 0.250000
vt 0.602500 0.250000
vt 0.625000 0.250000
vt 0.625000 0.250000
vt 0.625000 0.250000
vt 0.625000 0.250000
vt 0.625000 0.250000
vt 0.625000 0.250000
vt 0.625000 0.300000
vt 0.625000 0.300000
vt 0.625000 0.300000
vt 0.625000 0.300000
vt 0.625000 0.300000
vt 0.625000 0.300000
vt 0.375000 0.250000
vt 0.375000 0.250000
vt 0.375000 0.250000
vt 0.375000 0.250000
vt 0.375000 0.250000
vt 0.375000 0.250000
vt 0.375000 0.300000
vt 0.375000 0.300000
vt 0.375000 0.300000
vt 0.375000 0.300000
vt 0.375000 0.300000
vt 0.375000 0.300000
vt 0.375000 0.250000
vt 0.375000 0.250000
vt 0.375000 0.250000
vt 0.375000 0.250000
vt 0.375000 0.250000
vt 0.375000 0.250000
vt 0.400000 0.250000
vt 0.400000 0.250000
vt 0.400000 0.250000
vt 0.400000 0.250000
vt 0.400000 0.250000
vt 0.400000 0.250000
vt 0.625000 0.750000
vt 0.625000 0.750000
vt 0.625000 0.750000
vt 0.625000 0.750000
vt 0.625000 0.750000
vt 0.625000 0.750000
vt 0.625000 0.750000
vt 0.625000 0.750000
vt 0.625000 0.750000
vt 0.625000 0.750000
vt 0.625000 0.750000
vt 0.625000 0.750000
vt 0.625000 0.750000
vt 0.625000 0.750000
vt 0.625000 0.750000
vt 0.625000 0.750000
vt 0.625000 0.750000
vt 0.625000 0.750000
vt 0.625000 0.750000
vt 0.625000 0.750000
vt 0.375000 0.750000
vt 0.375000 0.750000
vt 0.375000 0.750000
vt 0.375000 0.750000
vt 0.375000 0.750000
vt 0.375000 0.750000
vt 0.375000 0.750000
vt 0.375000 0.750000
vt 0.375000 0.750000
vt 0.375000 0.750000
vt 0.375000 0.750000
vt 0.375000 0.750000
vt 0.375000 0.750000
vt 0.375000 0.750000
vt 0.375000 0.750000
vt 0.375000 0.750000
vt 0.375000 0.750000
vt 0.375000 0.750000
vt 0.375000 0.750000
vt 0.375000 0.750000
vt 0.625000 0.500000
vt 0.625000 0.500000
vt 0.625000 0.500000
vt 0.625000 0.500000
vt 0.375000 0.500000
vt 0.375000 0.500000
vt 0.375000 0.500000
vt 0.375000 0.500000
vt 0.625000 0.500000
vt 0.625000 0.500000
vt 0.625000 0.500000
vt 0.625000 0.500000
vt 0.625000 0.500000
vt 0.625000 0.500000
vt 0.625000 0.500000
vt 0.625000 0.500000
vt 0.625000 0.500000
vt 0.625000 0.500000
vt 0.625000 0.500000
vt 0.625000 0.500000
vt 0.625000 0.500000
vt 0.625000 0.500000
vt 0.625000 0.500000
vt 0.625000 0.500000
vt 0.375000 0.500000
vt 0.375000 0.500000
vt 0.375000 0.500000
vt 0.375000 0.500000
vt 0.375000 0.500000
vt 0.375000 0.500000
vt 0.375000 0.500000
vt 0.375000 0.500000
vt 0.375000 0.500000
vt 0.375000 0.500000
vt 0.375000 0.500000
vt 0.375000 0.500000
vt 0.375000 0.500000
vt 0.375000 0.500000
vt 0.375000 0.500000
vt 0.375000 0.500000
vt 0.625000 0.500000
vt 0.625000 0.500000
vt 0.625000 0.500000
vt 0.625000 0.500000
vt 0.375000 0.500000
vt 0.375000 0.500000
vt 0.375000 0.500000
vt 0.375000 0.500000
vt 0.625000 0.500000
vt 0.625000 0.500000
vt 0.625000 0.500000
vt 0.625000 0.500000
vt 0.375000 0.500000
vt 0.375000 0.500000
vt 0.375000 0.500000
vt 0.375000 0.500000
vt 0.625000 0.500000
vt 0.625000 0.500000
vt 0.625000 0.500000
vt 0.625000 0.500000
vt 0.625000 0.500000
vt 0.625000 0.500000
vt 0.625000 0.500000
vt 0.625000 0.500000
vt 0.375000 0.500000
vt 0.375000 0.500000
vt 0.375000 0.500000
vt 0.375000 0.500000
vt 0.375000 0.500000
vt 0.375000 0.500000
vt 0.375000 0.500000
vt 0.375000 0.500000
vt 0.375000 0.500000
vt 0.375000 0.500000
vt 0.375000 0.500000
vt 0.375000 0.500000
vt 0.625000 0.500000
vt 0.625000 0.500000
vt 0.625000 0.500000
vt 0.625000 0.500000
vt 0.625000 0.500000
vt 0.625000 0.500000
vt 0.625000 0.500000
vt 0.625000 0.500000
vt 0.625000 0.500000
vt 0.625000 0.500000
vt 0.625000 0.500000
vt 0.625000 0.500000
vt 0.375000 0.500000
vt 0.375000 0.500000
vt 0.375000 0.500000
vt 0.375000 0.500000
vt 0.375000 0.500000
vt 0.375000 0.500000
vt 0.375000 0.500000
vt 0.375000 0.500000
vn 0.000000 0.000000 1.000000
vn 0.000000 0.000000 1.000000
vn 0.000000 -0.718298 0.695736
vn 0.000000 -0.733919 0.679237
vn 0.000000 1.000000 0.000000
vn 0.000000 1.000000 0.000000
vn 0.000000 1.000000 -0.000000
vn 0.000000 1.000000 0.000000
vn -0.015432 -0.092173 -0.995623
vn 0.015432 -0.092173 -0.995623
vn -0.001346 -0.066822 -0.997764
vn 0.001346 -0.066822 -0.997764
vn 0.000000 -1.000000 -0.000000
vn 0.000000 -1.000000 0.000000
vn 0.000000 -1.000000 0.000000
vn 0.000000 -1.000000 0.000000
vn 1.000000 0.000000 0.000000
vn 0.998160 -0.000000 -0.060630
vn 0.847579 -0.530670 0.000000
vn 0.839337 -0.541216 -0.050983
vn -0.998160 -0.000000 -0.060630
vn -1.000000 -0.000000 0.000000
vn -0.839337 -0.541216 -0.050983
vn -0.847579 -0.530669 0.000000
vn 0.000000 -1.000000 0.000000
vn 0.000000 -1.000000 0.000000
vn -0.007252 -0.069781 -0.997536
vn 0.000000 -1.000000 -0.000730
vn -0.054294 -0.031155 -0.998039
vn 0.000000 -1.000000 0.000000
vn 0.000000 -1.000000 0.000000
vn 0.000000 -0.248570 0.968614
vn 0.000000 -0.049513 0.998774
vn 0.000000 0.000000 1.000000
vn 0.000000 0.000000 1.000000
vn 1.000000 0.000000 0.000000
vn 0.992057 -0.125792 0.000000
vn 0.997155 0.000000 -0.075374
vn 0.997155 0.000000 -0.075374
vn -0.007755 -0.066503 -0.997756
vn -0.059127 -0.041238 -0.997398
vn -0.997155 0.000000 -0.075374
vn -0.992057 -0.125792 0.000000
vn -0.997155 0.000000 -0.075374
vn -1.000000 0.000000 0.000000
vn 0.000000 -1.000000 0.000000
vn 0.000000 -1.000000 0.000000
vn -0.000000 0.000000 1.000000
vn 0.000000 -0.044952 0.998989
vn 0.000000 1.000000 -0.000000
vn 0.000000 1.000000 0.000000
vn 0.007903 -0.066613 -0.997748
vn 0.007392 -0.065488 -0.997826
vn 0.000000 1.000000 -0.000000
vn -0.000000 -1.000000 0.000000
vn -0.000000 -1.000000 0.000000
vn -0.000000 -1.000000 0.000000
vn 0.000000 -1.000000 0.000000
vn 0.000000 0.000000 1.000000
vn 0.000000 -0.248569 0.968614
vn 0.000000 1.000000 0.000000
vn 0.000000 1.000000 -0.000000
vn 0.053808 -0.031156 -0.998065
vn 0.058784 -0.041394 -0.997412
vn 0.000000 -1.000000 0.000000
vn 0.000000 -1.000000 -0.000000
vn 0.000000 -1.000000 -0.000000
vn 0.000000 -1.000000 -0.000000
vn -1.000000 0.000000 0.000000
vn -0.982073 -0.188502 0.000000
vn 0.000000 1.000000 0.000000
vn 0.000000 1.000000 -0.000000
vn 0.000000 1.000000 -0.000000
vn 0.000000 1.000000 0.000000
vn 0.982073 -0.188502 0.000000
vn 1.000000 0.000000 0.000000
vn 0.000000 1.000000 0.000000
vn 0.000000 1.000000 0.000000
vn 0.000000 1.000000 0.000000
vn 0.000000 1.000000 0.000000
vn 1.000000 -0.000000 0.000000
vn 1.000000 -0.000000 0.000000
vn 1.000000 0.000000 0.000000
vn 1.000000 0.000000 0.000000
vn 0.000000 -1.000000 0.000000
vn 0.000000 -1.000000 -0.000000
vn 0.000000 -1.000000 0.000000
vn 0.000000 -1.000000 0.000000
vn -1.000000 -0.000000 0.000000
vn -1.000000 0.000000 0.000000
vn -1.000000 -0.000000 0.000000
vn -1.000000 0.000000 0.000000
vn -0.062945 0.142955 0.987726
vn -0.007012 0.001927 0.999974
vn -0.049956 0.138323 0.989127
vn 0.000000 -0.001170 0.999999
vn 0.000000 -1.000000 0.000000
vn 0.000000 -1.000000 0.000000
vn 0.000000 -1.000000 0.000000
vn 0.000000 -1.000000 0.000000
vn 0.051016 -0.121108 -0.991328
vn 0.000000 -0.000081 -1.000000
vn -0.002148 0.998557 -0.053662
vn 0.038740 0.988145 -0.148555
vn 0.001018 0.998892 -0.047042
vn 0.057689 0.987864 -0.144209
vn 0.000000 0.010509 0.999945
vn 0.057898 0.136830 0.988901
vn 0.007008 0.007421 0.999948
vn 0.055159 0.132069 0.989705
vn 0.002148 0.998557 -0.053662
vn -0.001018 0.998892 -0.047042
vn -0.038740 0.988145 -0.148555
vn -0.057689 0.987864 -0.144209
vn -0.051016 -0.121108 -0.991328
vn 0.000000 -0.000081 -1.000000
vn 0.000000 -1.000000 0.000000
vn 0.000000 -1.000000 0.000000
vn 0.000000 -1.000000 0.000000
vn 0.000000 -1.000000 0.000000
vn -1.000000 0.000000 0.000000
vn -1.000000 0.000000 0.000000
vn -1.000000 0.000000 0.000000
vn -1.000000 0.000000 0.000000
vn -0.122558 0.293320 0.948126
vn -0.155369 0.351182 0.923326
vn 1.000000 0.000000 0.000000
vn 1.000000 0.000000 0.000000
vn 0.125533 -0.204353 -0.970815
vn 0.162178 -0.235816 -0.958170
vn 1.000000 0.000000 0.000000
vn 1.000000 0.000000 0.000000
vn 1.000000 0.000000 0.000000
vn 1.000000 0.000000 0.000000
vn -0.125533 -0.204353 -0.970815
vn -0.158717 -0.238869 -0.957993
vn -1.000000 0.000000 0.000000
vn -1.000000 0.000000 0.000000
vn 0.122558 0.293320 0.948126
vn 0.152019 0.356692 0.921771
vn -1.000000 0.000000 -0.000000
vn -1.000000 0.000000 -0.000000
vn -1.000000 0.000000 -0.000000
vn -1.000000 0.000000 0.000000
vn -0.131044 0.304192 0.943554
vn -0.209473 0.298839 0.931030
vn 1.000000 -0.000000 0.000000
vn 1.000000 -0.000000 0.000000
vn 0.134420 -0.212528 -0.967865
vn 0.214317 -0.186990 -0.958699
vn 1.000000 -0.000000 0.000000
vn 1.000000 -0.000000 0.000000
vn 1.000000 -0.000000 0.000000
vn 1.000000 -0.000000 0.000000
vn -0.134420 -0.212528 -0.967865
vn -0.203322 -0.194659 -0.959567
vn -1.000000 0.000000 0.000000
vn -1.000000 0.000000 0.000000
vn 0.131044 0.304192 0.943554
vn 0.171006 0.364969 0.915180
vn -1.000000 0.000000 0.000000
vn -1.000000 0.000000 0.000000
vn -1.000000 0.000000 0.000000
vn -1.000000 0.000000 0.000000
vn -0.264197 0.253227 0.930632
vn -0.287429 0.258741 0.922192
vn 1.000000 -0.000000 0.000000
vn 1.000000 -0.000000 0.000000
vn 0.247545 -0.193778 -0.949301
vn 0.265947 -0.197431 -0.943554
vn 1.000000 -0.000000 0.000000
vn 1.000000 -0.000000 0.000000
vn 1.000000 -0.000000 0.000000
vn 1.000000 -0.000000 0.000000
vn -0.247545 -0.193778 -0.949301
vn -0.265947 -0.197431 -0.943554
vn -1.000000 -0.000000 0.000000
vn -1.000000 -0.000000 0.000000
vn 0.264198 0.253226 0.930632
vn 0.287429 0.258741 0.922192
vn -1.000000 0.000000 0.000000
vn -1.000000 -0.000000 0.000000
vn -0.424975 0.284364 0.859380
vn -0.442043 0.285467 0.850357
vn 1.000000 -0.000000 0.000000
vn 1.000000 0.000000 0.000000
vn 0.376463 -0.207051 -0.902998
vn 0.379231 -0.205092 -0.902287
vn 1.000000 -0.000000 0.000000
vn 1.000000 -0.000000 0.000000
vn -0.376463 -0.207051 -0.902998
vn -0.379231 -0.205092 -0.902287
vn -1.000000 -0.000000 0.000000
vn -1.000000 0.000000 0.000000
vn 0.424976 0.284364 0.859379
vn 0.442043 0.285467 0.850357
vn -1.000000 -0.000000 0.000000
vn -1.000000 -0.000000 0.000000
vn -0.448806 0.130671 0.884024
vn -0.409794 0.115011 0.904899
vn -0.497324 0.103110 0.861416
vn -0.449552 0.082661 0.889422
vn 1.000000 0.000000 0.000000
vn 1.000000 0.000000 0.000000
vn 0.318712 -0.170162 -0.932452
vn 0.297235 -0.163110 -0.940769
vn 1.000000 -0.000000 0.000000
vn 1.000000 -0.000000 0.000000
vn -0.318712 -0.170162 -0.932453
vn -0.297234 -0.163110 -0.940769
vn -1.000000 0.000000 0.000000
vn -1.000000 0.000000 0.000000
vn 0.448806 0.130671 0.884024
vn 0.497324 0.103110 0.861416
vn 0.409794 0.115011 0.904899
vn 0.449552 0.082661 0.889421
vn -0.976221 0.000000 -0.216780
vn -0.976231 -0.000447 -0.216731
vn -0.852145 -0.500805 -0.151800
vn 0.000000 -1.000000 0.000000
vn -0.984377 -0.000000 -0.176074
vn 0.000000 -1.000000 -0.000000
vn 0.000000 -1.000000 0.000000
vn 0.852145 -0.500805 -0.151800
vn 0.984377 -0.000000 -0.176074
vn 0.000000 -1.000000 0.000000
vn 0.976231 -0.000447 -0.216731
vn 0.976221 0.000000 -0.216780
vn 0.000000 1.000000 -0.000000
vn 0.000000 1.000000 0.000000
vn 0.000000 1.000000 0.000001
vn 0.000000 1.000000 -0.000000
vn -0.951098 -0.008677 -0.308768
vn -0.951137 -0.009633 -0.308619
vn -0.901977 -0.364108 -0.232086
vn 0.000000 -1.000000 0.000000
vn -0.967899 -0.005328 -0.251282
vn 0.967899 -0.005328 -0.251282
vn 0.901977 -0.364108 -0.232086
vn 0.000000 -1.000000 0.000000
vn 0.951098 -0.008677 -0.308768
vn 0.951137 -0.009633 -0.308619
vn 0.000000 1.000000 -0.000000
vn 0.000000 1.000000 0.000000
vn 0.000000 1.000000 0.000001
vn 0.000000 1.000000 0.000000
vn 0.000000 -0.090851 0.995865
vn 0.000000 -0.056277 0.998415
vn 0.000000 0.042458 0.999098
vn 0.000000 0.042739 0.999086
vn 0.000000 0.035449 0.999372
vn 0.000000 0.035627 0.999365
vn -0.000000 0.052466 0.998623
vn 0.000000 0.052531 0.998619
vn -0.000000 0.103557 0.994624
vn -0.000000 0.103557 0.994624
vn -0.000000 0.103557 0.994624
vn -0.000001 0.103557 0.994624
vn -0.998075 -0.036313 0.050269
vn -0.998386 -0.005167 0.056564
vn -0.998392 -0.004071 0.056542
vn -0.998492 -0.000399 0.054896
vn -0.998607 0.002630 0.052701
vn -0.998731 0.002288 0.050303
vn -0.998373 0.007007 0.056594
vn -0.998138 0.004949 0.060794
vn -0.997497 0.009329 0.070096
vn -0.997041 0.006958 0.076558
vn -0.996240 0.012630 0.085713
vn -0.995862 0.011187 0.090185
vn -0.995389 0.011419 0.095242
vn -0.995105 0.010234 0.098296
vn 0.000000 0.000000 -1.000000
vn 0.000000 0.052041 -0.998645
vn 0.000000 0.000000 -1.000000
vn 0.000000 0.055234 -0.998474
vn 0.000000 -0.046550 -0.998916
vn 0.000000 -0.048254 -0.998835
vn 0.000000 -0.161870 -0.986812
vn 0.000000 -0.161825 -0.986819
vn 0.000000 -0.187645 -0.982237
vn 0.000000 -0.187665 -0.982233
vn 0.000000 -0.179253 -0.983803
vn 0.000000 -0.179253 -0.983803
vn 0.000000 -0.154305 -0.988023
vn 0.000000 -0.154305 -0.988023
vn 0.994123 -0.108260 0.000000
vn 0.996940 -0.078169 0.000000
vn 0.999736 -0.022985 0.000000
vn 0.999736 -0.023002 0.000000
vn 0.999994 -0.003511 0.000000
vn 1.000000 -0.000549 0.000000
vn 0.999817 0.019120 0.000000
vn 0.999869 0.016174 0.000000
vn 1.000000 0.000000 0.000000
vn 1.000000 0.000000 0.000000
vn 1.000000 0.000000 0.000000
vn 1.000000 0.000000 0.000000
vn -0.994123 -0.108260 0.000000
vn -0.996940 -0.078169 0.000000
vn -0.999736 -0.022985 0.000000
vn -0.999736 -0.023002 0.000000
vn -0.999994 -0.003511 0.000000
vn -1.000000 -0.000549 0.000000
vn -0.999817 0.019120 0.000000
vn -0.999869 0.016174 0.000000
vn -1.000000 -0.000000 0.000000
vn -1.000000 -0.000000 0.000000
vn -1.000000 0.000000 0.000000
vn -1.000000 0.000000 0.000000
vn 0.000000 0.000005 -1.000000
vn 0.000000 0.000005 -1.000000
vn 0.000000 0.052043 -0.998645
vn 0.000000 0.055235 -0.998473
vn 0.000000 -0.046550 -0.998916
vn 0.000000 -0.048253 -0.998835
vn 0.000000 -0.161869 -0.986812
vn 0.000000 -0.161825 -0.986820
vn 0.000000 -0.187644 -0.982237
vn 0.000000 -0.187665 -0.982233
vn 0.000000 -0.179253 -0.983803
vn 0.000000 -0.179253 -0.983803
vn 0.000000 -0.154304 -0.988024
vn 0.000000 -0.154304 -0.988023
vn 0.999909 0.007910 -0.010948
vn 0.999924 0.000887 -0.012311
vn 0.999924 0.001126 -0.012315
vn 0.999929 0.000087 -0.011952
vn 0.999934 -0.000572 -0.011471
vn 0.999940 -0.000498 -0.010949
vn 0.999923 -0.001525 -0.012323
vn 0.999912 -0.001078 -0.013239
vn 0.999881 -0.002032 -0.015276
vn 0.999860 -0.001518 -0.016689
vn 0.999821 -0.002755 -0.018702
vn 0.999803 -0.002442 -0.019682
vn 0.999781 -0.002493 -0.020798
vn 0.999767 -0.002236 -0.021469
vn 0.000001 -0.089500 0.995987
vn 0.000001 -0.056279 0.998415
vn 0.000001 0.042460 0.999098
vn 0.000001 0.042738 0.999086
vn 0.000002 0.035452 0.999371
vn 0.000002 0.035626 0.999365
vn 0.000000 0.052464 0.998623
vn 0.000000 0.052530 0.998619
vn 0.000000 0.103556 0.994624
vn 0.000000 0.103556 0.994624
vn 0.000001 0.103556 0.994624
vn 0.000002 0.103556 0.994624
vn -1.000000 -0.000000 0.000000
vn -1.000000 -0.000000 0.000000
vn -1.000000 -0.000000 0.000000
vn -1.000000 -0.000000 0.000000
vn -1.000000 -0.000000 0.000000
vn -1.000000 0.000000 0.000000
vn -1.000000 -0.000000 0.000000
vn -1.000000 0.000000 0.000000
vn -1.000000 0.000000 0.000000
vn -1.000000 0.000000 0.000000
vn -1.000000 -0.000000 0.000000
vn -1.000000 -0.000000 0.000000
vn 0.000000 0.010717 -0.999943
vn 0.000000 0.010717 -0.999943
vn 0.000000 0.010717 -0.999943
vn 0.000000 0.010717 -0.999943
vn 0.000000 0.077941 -0.996958
vn 0.000000 0.077941 -0.996958
vn 0.000000 0.091289 -0.995824
vn 0.000000 0.091289 -0.995824
vn 0.000000 0.077941 -0.996958
vn 0.000000 0.077941 -0.996958
vn 1.000000 0.000000 0.000000
vn 1.000000 0.000000 0.000000
vn 1.000000 0.000000 0.000000
vn 1.000000 -0.000000 0.000000
vn 1.000000 0.000000 0.000000
vn 1.000000 0.000000 0.000000
vn 1.000000 0.000000 0.000000
vn 1.000000 0.000000 0.000000
vn 1.000000 0.000000 0.000000
vn 1.000000 0.000000 0.000000
vn 0.000000 -0.030941 0.999521
vn 0.000000 -0.030941 0.999521
vn 0.000000 -0.071251 0.997458
vn 0.000000 -0.071251 0.997458
vn 0.000000 -0.137573 0.990492
vn 0.000000 -0.137573 0.990492
vn 0.000000 -0.227236 0.973840
vn 0.000000 -0.227236 0.973840
vn 0.000000 -0.270132 0.962823
vn 0.000000 -0.270132 0.962823
vn 1.000000 0.000000 0.000000
vn 1.000000 -0.000000 0.000000
vn 1.000000 0.000000 0.000000
vn 1.000000 -0.000000 0.000000
vn 1.000000 -0.000000 0.000000
vn 1.000000 0.000000 0.000000
vn 1.000000 -0.000000 0.000000
vn 1.000000 -0.000000 0.000000
vn 1.000000 -0.000000 0.000000
vn 1.000000 -0.000000 0.000000
vn 1.000000 -0.000000 0.000000
vn 1.000000 -0.000000 0.000000
vn 0.000000 -0.030941 0.999521
vn 0.000000 -0.030941 0.999521
vn 0.000000 -0.071251 0.997458
vn 0.000000 -0.071251 0.997458
vn 0.000000 -0.137573 0.990492
vn 0.000000 -0.137573 0.990492
vn 0.000000 -0.227236 0.973840
vn 0.000000 -0.227236 0.973840
vn 0.000000 -0.270132 0.962823
vn 0.000000 -0.270132 0.962823
vn -1.000000 0.000000 0.000000
vn -1.000000 0.000000 0.000000
vn -1.000000 -0.000000 0.000000
vn -1.000000 -0.000000 0.000000
vn -1.000000 0.000000 0.000000
vn -1.000000 0.000000 0.000000
vn -1.000000 0.000000 0.000000
vn -1.000000 0.000000 0.000000
vn -1.000000 0.000000 0.000000
vn -1.000000 0.000000 0.000000
vn 0.000000 0.010717 -0.999943
vn 0.000000 0.010717 -0.999943
vn 0.000000 0.010717 -0.999943
vn 0.000000 0.010717 -0.999943
vn 0.000000 0.077941 -0.996958
vn 0.000000 0.077941 -0.996958
vn 0.000000 0.091289 -0.995824
vn 0.000000 0.091289 -0.995824
vn 0.000000 0.077941 -0.996958
vn 0.000000 0.077941 -0.996958
vn 0.707784 -0.703223 0.067219
vn -0.053457 -0.992906 0.106206
vn 0.644449 -0.759283 0.090418
vn -0.052071 -0.993244 0.103702
vn 1.000000 0.000000 0.000001
vn 1.000000 0.000000 0.000001
vn 1.000000 0.000000 0.000000
vn 1.000000 0.000001 -0.000000
vn 0.067289 0.978549 -0.194714
vn 0.083738 0.980275 -0.179024
vn -1.000000 0.000000 0.000000
vn -1.000000 0.000000 0.000000
vn -1.000000 0.000000 0.000000
vn -1.000000 0.000000 0.000000
vn -0.699420 -0.711100 0.071755
vn -0.635138 -0.766980 0.091329
vn 0.053457 -0.992906 0.106206
vn 0.052071 -0.993244 0.103702
vn 1.000000 0.000000 0.000000
vn 1.000000 0.000000 0.000000
vn 1.000000 0.000000 0.000000
vn 1.000000 0.000000 0.000000
vn -0.067289 0.978549 -0.194714
vn -0.083738 0.980275 -0.179024
vn -1.000000 -0.000000 0.000000
vn -1.000000 -0.000000 0.000000
vn -1.000000 -0.000000 0.000000
vn -1.000000 0.000000 0.000000
vn 0.459856 -0.151845 -0.874915
vn 0.409612 -0.123241 -0.903897
vn 0.403854 -0.128912 -0.905695
vn 0.355231 -0.121363 -0.926867
vn 0.285848 -0.106622 -0.952325
vn 0.323032 -0.087778 -0.942308
vn 0.162858 -0.087218 -0.982787
vn 0.176834 -0.079047 -0.981061
vn 0.087858 -0.080292 -0.992892
vn 0.091830 -0.078543 -0.992672
vn -0.820262 0.569003 -0.058359
vn -0.031231 -0.986376 0.161515
vn -0.877584 0.474690 -0.067199
vn -0.025963 -0.985743 0.166242
vn -0.004369 -0.984438 0.175677
vn -0.000856 -0.984171 0.177222
vn 0.010877 -0.984167 0.176911
vn 0.010852 -0.984185 0.176814
vn -0.463416 0.066412 0.883649
vn -0.420340 0.064395 0.905079
vn -0.341019 0.051727 0.938632
vn -0.368718 0.036790 0.928813
vn -0.195854 0.035744 0.979981
vn -0.202936 0.029930 0.978735
vn -0.103973 0.030527 0.994111
vn -0.105587 0.029836 0.993962
vn 0.046660 0.971773 -0.231257
vn 0.037661 0.968713 -0.245310
vn 0.010664 0.964109 -0.265293
vn 0.001508 0.961649 -0.274278
vn -0.031555 0.957652 -0.286195
vn -0.036549 0.956580 -0.289168
vn -0.051819 0.956079 -0.288491
vn -0.051723 0.956158 -0.288246
vn -0.459856 -0.151845 -0.874915
vn -0.403854 -0.128912 -0.905695
vn -0.409611 -0.123241 -0.903897
vn -0.355232 -0.121363 -0.926866
vn -0.285848 -0.106622 -0.952325
vn -0.323032 -0.087778 -0.942309
vn -0.162858 -0.087218 -0.982787
vn -0.176834 -0.079047 -0.981061
vn -0.087857 -0.080292 -0.992892
vn -0.091829 -0.078543 -0.992672
vn -0.046659 0.971775 -0.231251
vn -0.037658 0.968715 -0.245303
vn -0.010662 0.964111 -0.265285
vn -0.001507 0.961651 -0.274273
vn 0.031554 0.957652 -0.286196
vn 0.036548 0.956579 -0.289171
vn 0.051816 0.956079 -0.288491
vn 0.051720 0.956159 -0.288247
vn 0.463416 0.066412 0.883649
vn 0.420340 0.064395 0.905079
vn 0.341019 0.051727 0.938632
vn 0.368719 0.036790 0.928813
vn 0.195853 0.035744 0.979982
vn 0.202937 0.029930 0.978734
vn 0.103973 0.030527 0.994112
vn 0.105588 0.029836 0.993962
vn 0.822715 0.565498 -0.057895
vn 0.879931 0.470411 -0.066590
vn 0.031230 -0.986376 0.161518
vn 0.025961 -0.985742 0.166247
vn 0.004368 -0.984437 0.175682
vn 0.000856 -0.984170 0.177226
vn -0.010874 -0.984168 0.176905
vn -0.010849 -0.984186 0.176803
vn 0.367387 -0.194293 -0.909548
vn 0.362675 -0.199849 -0.910235
vn 0.399442 -0.203977 -0.893778
vn 0.394194 -0.208267 -0.895118
vn 0.253616 0.951295 -0.175261
vn 0.303297 0.936823 -0.174283
vn -0.313012 0.137591 0.939730
vn -0.327286 0.147723 0.933307
vn 0.134055 -0.985575 0.103299
vn 0.246689 -0.963796 0.101203
vn -0.367386 -0.194293 -0.909548
vn -0.399442 -0.203977 -0.893778
vn -0.362675 -0.199849 -0.910235
vn -0.394194 -0.208267 -0.895118
vn -0.134055 -0.985575 0.103299
vn -0.246689 -0.963796 0.101203
vn 0.313012 0.137591 0.939730
vn 0.327286 0.147723 0.933307
vn -0.253616 0.951295 -0.175261
vn -0.303297 0.936823 -0.174283
vn 0.272238 -0.217796 -0.937258
vn 0.302798 -0.219734 -0.927378
vn 0.713290 0.689018 -0.128344
vn 0.712091 0.690027 -0.129570
vn 0.221345 0.152606 0.963181
vn 0.248381 0.155017 0.956178
vn 0.713003 -0.697322 0.073271
vn 0.712922 -0.697395 0.073364
vn -0.272236 -0.217796 -0.937258
vn -0.302798 -0.219734 -0.927378
vn -0.713004 -0.697321 0.073271
vn -0.712922 -0.697395 0.073364
vn -0.221346 0.152606 0.963181
vn -0.248380 0.155018 0.956178
vn -0.713290 0.689018 -0.128344
vn -0.712089 0.690029 -0.129573
vn 0.000000 -1.000000 0.000000
vn 0.000000 -1.000000 0.000000
vn 0.000000 -1.000000 0.000000
vn 0.000000 -1.000000 0.000000
vn 0.000000 -1.000000 0.000000
vn 0.000000 -1.000000 0.000000
vn -0.093553 0.548488 0.830908
vn -0.199343 0.333604 0.921396
vn -0.036563 0.550536 0.834011
vn -0.036563 0.550536 0.834011
vn 0.000000 1.000000 0.000000
vn 0.000000 1.000000 0.000000
vn 0.000000 1.000000 0.000000
vn 0.000000 1.000000 0.000000
vn 0.102745 -0.356065 -0.928796
vn 0.207612 -0.185096 -0.960540
vn 0.040901 -0.357660 -0.932956
vn 0.040901 -0.357660 -0.932956
vn 0.000000 -1.000000 0.000000
vn 0.000000 -1.000000 0.000000
vn 0.000000 -1.000000 0.000000
vn 0.000000 -1.000000 0.000000
vn 0.000000 -1.000000 0.000000
vn 0.000000 -1.000000 0.000001
vn -0.102249 -0.356083 -0.928843
vn -0.193426 -0.194891 -0.961563
vn -0.042580 -0.357635 -0.932890
vn -0.042580 -0.357636 -0.932890
vn 0.000000 1.000000 0.000000
vn 0.000000 1.000000 0.000000
vn 0.000000 1.000000 0.000000
vn 0.000000 1.000000 0.000000
vn 0.092869 0.548523 0.830962
vn 0.084814 0.548919 0.831562
vn 0.038065 0.550506 0.833963
vn 0.038065 0.550507 0.833963
vn -0.749241 0.662298 0.000000
vn -0.990611 0.136654 0.003927
vn -0.749174 0.662372 0.001287
vn -0.997113 -0.075893 -0.002458
vn 0.259591 0.182518 0.948314
vn 0.248104 0.190131 0.949892
vn 0.061413 0.290583 0.954877
vn 0.044218 0.290433 0.955873
vn 0.751065 -0.660228 0.000000
vn 0.751078 -0.660207 -0.002850
vn 0.750971 -0.659867 -0.024857
vn 0.750880 -0.659720 -0.030787
vn -0.108076 -0.165422 -0.980283
vn -0.092549 -0.162852 -0.982300
vn 0.747605 0.664144 0.000000
vn 0.747518 0.664238 0.002183
vn 0.990336 0.138606 0.004853
vn 0.996641 -0.081806 -0.003699
vn 0.149601 -0.143321 -0.978304
vn 0.128474 -0.157017 -0.979204
vn -0.748173 -0.663503 0.000000
vn -0.748079 -0.663139 -0.024997
vn -0.748186 -0.663483 -0.002855
vn -0.747988 -0.662991 -0.030939
vn -0.171303 0.215190 0.961431
vn -0.154359 0.226231 0.961766
vn -0.127207 -0.159988 -0.978888
vn -0.182896 -0.194677 -0.963665
vn -0.424628 -0.340575 -0.838868
vn -0.439309 -0.349151 -0.827708
vn 0.753388 0.657299 0.019105
vn 0.753257 0.657556 0.014961
vn 0.107859 0.240746 0.964576
vn 0.451354 0.424695 0.784802
vn 0.180563 0.282477 0.942127
vn 0.467266 0.432276 0.771233
vn -0.211296 0.321815 0.922924
vn -0.168261 0.310073 0.935704
vn 0.159382 -0.193437 -0.968080
vn 0.118768 -0.179957 -0.976478
vn -0.448981 0.434167 0.780971
vn -0.465134 0.441348 0.767373
vn -0.751022 0.659998 0.019179
vn -0.750892 0.660254 0.015032
vn 0.422760 -0.337857 -0.840908
vn 0.439576 -0.347428 -0.828292
s 1
g chairMesh
usemtl lambert2SG
f 1/1/1 2/2/2 3/3/3
f 3/3/3 2/2/2 4/4/4
s 2
f 26/32/5 27/33/6 83/89/7
f 83/89/7 27/33/6 92/102/8
s 3
f 31/37/9 32/38/10 34/40/11
f 34/40/11 32/38/10 33/39/12
s 4
f 86/94/13 87/95/14 1/9/15
f 1/9/15 87/95/14 2/10/16
s 5
f 2/2/17 87/96/18 4/4/19
f 4/4/19 87/96/18 88/98/20
s 6
f 86/93/21 1/1/22 85/91/23
f 85/91/23 1/1/22 3/3/24
s 5
f 4/4/19 88/97/20 30/36/25
f 30/36/25 88/97/20 89/99/26
s 7
f 20/26/27 5/5/28 12/18/29
s 6
f 85/92/23 3/3/24 84/90/30
f 84/90/30 3/3/24 25/31/31
s 8
f 9/15/32 17/23/33 13/19/34
f 13/19/34 17/23/33 18/24/35
s 9
f 29/35/36 30/36/37 90/100/38
f 90/100/38 30/36/37 89/99/39
s 7
f 19/25/40 20/26/27 16/22/41
f 16/22/41 20/26/27 12/18/29
s 11
f 84/90/42 25/31/43 83/89/44
f 83/89/44 25/31/43 26/32/45
s 1
f 3/3/3 4/4/4 17/23/46
f 17/23/46 4/4/4 21/27/47
s 8
f 18/24/35 17/23/33 22/28/48
f 22/28/48 17/23/33 21/27/49
s 2
f 92/102/8 27/33/6 91/101/50
f 91/101/50 27/33/6 28/34/51
s 7
f 23/29/52 24/30/53 19/25/40
f 19/25/40 24/30/53 20/26/27
f 6/6/54 5/5/28 24/30/53
f 5/5/28 20/26/27 24/30/53
s 13
f 114/122/55 108/128/56 126/140/57
f 126/140/57 108/128/56 120/134/58
s 8
f 22/28/48 21/27/49 14/20/59
f 14/20/59 21/27/49 10/16/60
s 2
f 91/101/50 28/34/51 90/100/61
f 90/100/61 28/34/51 29/35/62
s 7
f 11/17/63 24/30/53 15/21/64
f 15/21/64 24/30/53 23/29/52
f 6/6/54 24/30/53 11/17/63
s 14
f 138/152/65 144/158/66 132/146/67
f 132/146/67 144/158/66 150/164/68
s 11
f 26/32/45 25/31/43 13/19/69
f 13/19/69 25/31/43 9/15/70
s 2
f 13/19/71 18/24/72 26/32/5
f 26/32/5 18/24/72 27/33/6
f 27/33/6 18/24/72 28/34/51
f 28/34/51 18/24/72 22/28/73
f 28/34/51 22/28/73 29/35/62
f 29/35/62 22/28/73 14/20/74
s 9
f 10/16/75 30/36/37 14/20/76
f 14/20/76 30/36/37 29/35/36
s 16
f 5/5/77 6/6/78 31/37/79
f 31/37/79 6/6/78 32/38/80
s 17
f 36/42/81 37/43/82 35/41/83
f 35/41/83 37/43/82 38/44/84
s 4
f 8/8/85 7/7/86 33/39/87
f 33/39/87 7/7/86 34/40/88
s 19
f 40/45/89 39/46/90 42/48/91
f 42/48/91 39/46/90 41/47/92
s 20
f 6/6/93 8/8/94 35/41/95
f 35/41/95 8/8/94 36/42/96
s 21
f 155/169/97 160/174/98 170/184/99
f 170/184/99 160/174/98 165/179/100
s 3
f 32/38/10 38/44/101 33/39/12
f 33/39/12 38/44/101 37/43/102
s 22
f 76/81/103 75/82/104 78/84/105
f 78/84/105 75/82/104 77/83/106
s 23
f 7/7/107 5/5/108 40/45/109
f 40/45/109 5/5/108 39/46/110
s 24
f 80/86/111 81/87/112 79/85/113
f 79/85/113 81/87/112 82/88/114
s 3
f 31/37/9 34/40/11 41/47/115
f 41/47/115 34/40/11 42/48/116
s 25
f 180/189/117 175/194/118 190/204/119
f 190/204/119 175/194/118 185/199/120
s 26
f 6/6/121 43/50/122 32/38/123
f 32/38/123 43/50/122 44/49/124
s 20
f 35/41/95 45/51/125 6/6/93
f 6/6/93 45/51/125 43/50/126
s 17
f 35/41/83 38/44/84 45/51/127
f 45/51/127 38/44/84 46/52/128
s 3
f 38/44/101 32/38/10 46/52/129
f 46/52/129 32/38/10 44/49/130
s 27
f 5/5/131 31/37/132 47/53/133
f 47/53/133 31/37/132 48/54/134
s 3
f 41/47/115 49/55/135 31/37/9
f 31/37/9 49/55/135 48/54/136
s 19
f 39/46/90 50/56/137 41/47/92
f 41/47/92 50/56/137 49/55/138
s 23
f 39/46/110 5/5/108 50/56/139
f 50/56/139 5/5/108 47/53/140
s 28
f 244/264/141 248/266/142 246/262/143
s 29
f 246/262/143 248/266/142 250/268/144
s 20
f 45/51/125 53/59/145 43/50/126
f 43/50/126 53/59/145 51/58/146
s 17
f 45/51/127 46/52/128 53/59/147
f 53/59/147 46/52/128 54/60/148
s 3
f 46/52/129 44/49/130 54/60/149
f 54/60/149 44/49/130 52/57/150
s 29
f 244/270/151 246/272/152 248/276/153
s 28
f 248/276/153 246/272/152 250/274/154
s 3
f 49/55/135 57/63/155 48/54/136
f 48/54/136 57/63/155 56/62/156
s 19
f 50/56/137 58/64/157 49/55/138
f 49/55/138 58/64/157 57/63/158
s 23
f 50/56/139 47/53/140 58/64/159
f 58/64/159 47/53/140 55/61/160
s 30
f 51/58/161 59/66/162 52/57/163
f 52/57/163 59/66/162 60/65/164
s 20
f 53/59/145 61/67/165 51/58/146
f 51/58/146 61/67/165 59/66/166
s 17
f 53/59/147 54/60/148 61/67/167
f 61/67/167 54/60/148 62/68/168
s 3
f 54/60/149 52/57/150 62/68/169
f 62/68/169 52/57/150 60/65/170
s 31
f 55/61/171 56/62/172 63/69/173
f 63/69/173 56/62/172 64/70/174
s 3
f 57/63/155 65/71/175 56/62/156
f 56/62/156 65/71/175 64/70/176
s 19
f 58/64/157 66/72/177 57/63/158
f 57/63/158 66/72/177 65/71/178
s 23
f 58/64/159 55/61/160 66/72/179
f 66/72/179 55/61/160 63/69/180
s 30
f 59/66/162 67/74/181 60/65/164
f 60/65/164 67/74/181 68/73/182
s 20
f 61/67/165 69/75/183 59/66/166
f 59/66/166 69/75/183 67/74/184
s 17
f 61/67/167 62/68/168 69/75/185
f 69/75/185 62/68/168 70/76/186
s 3
f 62/68/169 60/65/170 70/76/187
f 70/76/187 60/65/170 68/73/188
s 31
f 63/69/173 64/70/174 71/77/189
f 71/77/189 64/70/174 72/78/190
s 3
f 65/71/175 73/79/191 64/70/176
f 64/70/176 73/79/191 72/78/192
s 19
f 66/72/177 74/80/193 65/71/178
f 65/71/178 74/80/193 73/79/194
s 23
f 66/72/179 63/69/180 74/80/195
f 74/80/195 63/69/180 71/77/196
s 30
f 67/74/181 75/82/197 68/73/182
f 68/73/182 75/82/197 76/81/198
s 32
f 192/206/199 193/207/200 191/205/201
f 191/205/201 193/207/200 194/208/202
s 17
f 69/75/185 70/76/186 77/83/203
f 77/83/203 70/76/186 78/84/204
s 3
f 70/76/187 68/73/188 78/84/205
f 78/84/205 68/73/188 76/81/206
s 31
f 71/77/189 72/78/190 79/85/207
f 79/85/207 72/78/190 80/86/208
s 3
f 73/79/191 81/87/209 72/78/192
f 72/78/192 81/87/209 80/86/210
s 19
f 74/80/193 82/88/211 73/79/194
f 73/79/194 82/88/211 81/87/212
s 33
f 196/209/213 195/210/214 198/212/215
f 198/212/215 195/210/214 197/211/216
s 11
f 94/104/217 84/90/42 93/103/218
f 93/103/218 84/90/42 83/89/44
s 6
f 95/106/219 85/92/23 94/104/220
f 94/104/220 85/92/23 84/90/30
f 96/107/221 86/93/21 95/105/219
f 95/105/219 86/93/21 85/91/23
s 4
f 96/108/222 97/109/223 86/94/13
f 86/94/13 97/109/223 87/95/14
s 5
f 88/98/20 87/96/18 98/112/224
f 98/112/224 87/96/18 97/110/225
f 89/99/26 88/97/20 99/113/226
f 99/113/226 88/97/20 98/111/224
s 9
f 90/100/38 89/99/39 100/114/227
f 100/114/227 89/99/39 99/113/228
s 2
f 101/115/229 91/101/50 100/114/230
f 100/114/230 91/101/50 90/100/61
f 102/116/231 92/102/8 101/115/229
f 101/115/229 92/102/8 91/101/50
f 83/89/7 92/102/8 93/103/232
f 93/103/232 92/102/8 102/116/231
s 11
f 94/104/217 93/103/218 12/18/233
f 12/18/233 93/103/218 16/22/234
s 6
f 5/5/235 95/106/219 12/18/236
f 12/18/236 95/106/219 94/104/220
f 96/107/221 95/105/219 7/13/237
f 7/13/237 95/105/219 5/14/235
s 4
f 7/7/86 8/8/85 96/108/222
f 96/108/222 8/8/85 97/109/223
s 5
f 97/110/225 8/11/238 98/112/224
f 98/112/224 8/11/238 6/12/239
f 99/113/226 98/111/224 11/17/240
f 11/17/240 98/111/224 6/6/239
s 9
f 99/113/228 11/17/241 100/114/227
f 100/114/227 11/17/241 15/21/242
s 2
f 23/29/243 101/115/229 15/21/244
f 15/21/244 101/115/229 100/114/230
f 19/25/245 102/116/231 23/29/243
f 23/29/243 102/116/231 101/115/229
f 93/103/232 102/116/231 16/22/246
f 16/22/246 102/116/231 19/25/245
s 8
f 10/16/60 21/27/49 109/117/247
f 109/117/247 21/27/49 103/123/248
f 109/117/247 103/123/248 110/118/249
f 110/118/249 103/123/248 104/124/250
f 110/118/249 104/124/250 111/119/251
f 111/119/251 104/124/250 105/125/252
f 105/125/252 106/126/253 111/119/251
f 111/119/251 106/126/253 112/120/254
f 112/120/254 106/126/253 113/121/255
f 113/121/255 106/126/253 107/127/256
f 113/121/255 107/127/256 114/122/257
f 114/122/257 107/127/256 108/128/258
s 38
f 21/27/259 4/4/260 103/123/261
f 103/123/261 4/4/260 115/129/262
f 103/123/261 115/129/262 104/124/263
f 104/124/263 115/129/262 116/130/264
f 116/130/264 117/131/265 104/124/263
f 104/124/263 117/131/265 105/125/266
f 117/131/265 118/132/267 105/125/266
f 105/125/266 118/132/267 106/126/268
f 118/132/267 119/133/269 106/126/268
f 106/126/268 119/133/269 107/127/270
f 119/133/269 120/134/271 107/127/270
f 107/127/270 120/134/271 108/128/272
s 39
f 30/36/273 121/135/274 4/4/275
f 4/4/275 121/135/274 115/129/276
f 121/135/274 122/136/277 115/129/276
f 115/129/276 122/136/277 116/130/278
f 122/136/277 123/137/279 116/130/278
f 116/130/278 123/137/279 117/131/280
f 117/131/280 123/137/279 118/132/281
f 118/132/281 123/137/279 124/138/282
f 118/132/281 124/138/282 119/133/283
f 119/133/283 124/138/282 125/139/284
f 119/133/283 125/139/284 120/134/285
f 120/134/285 125/139/284 126/140/286
s 9
f 10/16/75 109/117/287 30/36/37
f 30/36/37 109/117/287 121/135/288
f 109/117/287 110/118/289 121/135/288
f 121/135/288 110/118/289 122/136/290
f 122/136/290 110/118/289 123/137/291
f 123/137/291 110/118/289 111/119/292
f 123/137/291 111/119/292 124/138/293
f 124/138/293 111/119/292 112/120/294
f 124/138/293 112/120/294 125/139/295
f 125/139/295 112/120/294 113/121/296
f 125/139/295 113/121/296 126/140/297
f 126/140/297 113/121/296 114/122/298
s 11
f 9/15/70 25/31/43 127/141/299
f 127/141/299 25/31/43 133/147/300
f 127/141/299 133/147/300 128/142/301
f 128/142/301 133/147/300 134/148/302
f 134/148/302 135/149/303 128/142/301
f 128/142/301 135/149/303 129/143/304
f 135/149/303 136/150/305 129/143/304
f 129/143/304 136/150/305 130/144/306
f 136/150/305 137/151/307 130/144/306
f 130/144/306 137/151/307 131/145/308
f 137/151/307 138/152/309 131/145/308
f 131/145/308 138/152/309 132/146/310
s 40
f 25/31/311 3/3/312 133/147/313
f 133/147/313 3/3/312 139/153/314
f 133/147/313 139/153/314 134/148/315
f 134/148/315 139/153/314 140/154/316
f 134/148/315 140/154/316 135/149/317
f 135/149/317 140/154/316 141/155/318
f 141/155/318 142/156/319 135/149/317
f 135/149/317 142/156/319 136/150/320
f 136/150/320 142/156/319 137/151/321
f 137/151/321 142/156/319 143/157/322
f 137/151/321 143/157/322 138/152/323
f 138/152/323 143/157/322 144/158/324
s 41
f 17/23/325 145/159/326 3/3/327
f 3/3/327 145/159/326 139/153/328
f 145/159/326 146/160/329 139/153/328
f 139/153/328 146/160/329 140/154/330
f 140/154/330 146/160/329 141/155/331
f 141/155/331 146/160/329 147/161/332
f 141/155/331 147/161/332 142/156/333
f 142/156/333 147/161/332 148/162/334
f 142/156/333 148/162/334 143/157/335
f 143/157/335 148/162/334 149/163/336
f 143/157/335 149/163/336 144/158/337
f 144/158/337 149/163/336 150/164/338
s 8
f 9/15/32 127/141/339 17/23/33
f 17/23/33 127/141/339 145/159/340
f 127/141/339 128/142/341 145/159/340
f 145/159/340 128/142/341 146/160/342
f 128/142/341 129/143/343 146/160/342
f 146/160/342 129/143/343 147/161/344
f 147/161/344 129/143/343 148/162/345
f 148/162/345 129/143/343 130/144/346
f 148/162/345 130/144/346 149/163/347
f 149/163/347 130/144/346 131/145/348
f 149/163/347 131/145/348 150/164/349
f 150/164/349 131/145/348 132/146/350
s 42
f 8/8/351 33/39/352 151/165/353
f 151/165/353 33/39/352 156/170/354
f 151/165/353 156/170/354 152/166/355
f 152/166/355 156/170/354 157/171/356
f 152/166/355 157/171/356 153/167/357
f 153/167/357 157/171/356 158/172/358
f 153/167/357 158/172/358 154/168/359
f 154/168/359 158/172/358 159/173/360
f 154/168/359 159/173/360 155/169/361
f 155/169/361 159/173/360 160/174/362
s 3
f 33/39/12 37/43/102 156/170/363
f 156/170/363 37/43/102 161/175/364
f 156/170/363 161/175/364 157/171/365
f 157/171/365 161/175/364 162/176/366
f 157/171/365 162/176/366 158/172/367
f 158/172/367 162/176/366 163/177/368
f 158/172/367 163/177/368 159/173/369
f 159/173/369 163/177/368 164/178/370
f 159/173/369 164/178/370 160/174/371
f 160/174/371 164/178/370 165/179/372
s 17
f 36/42/81 166/180/373 37/43/82
f 37/43/82 166/180/373 161/175/374
f 166/180/373 167/181/375 161/175/374
f 161/175/374 167/181/375 162/176/376
f 167/181/375 168/182/377 162/176/376
f 162/176/376 168/182/377 163/177/378
f 168/182/377 169/183/379 163/177/378
f 163/177/378 169/183/379 164/178/380
f 169/183/379 170/184/381 164/178/380
f 164/178/380 170/184/381 165/179/382
s 20
f 36/42/96 8/8/94 166/180/383
f 166/180/383 8/8/94 151/165/384
f 166/180/383 151/165/384 167/181/385
f 167/181/385 151/165/384 152/166/386
f 167/181/385 152/166/386 168/182/387
f 168/182/387 152/166/386 153/167/388
f 168/182/387 153/167/388 169/183/389
f 169/183/389 153/167/388 154/168/390
f 169/183/389 154/168/390 170/184/391
f 170/184/391 154/168/390 155/169/392
s 43
f 7/7/393 171/190/394 34/40/395
f 34/40/395 171/190/394 176/185/396
f 171/190/394 172/191/397 176/185/396
f 176/185/396 172/191/397 177/186/398
f 172/191/397 173/192/399 177/186/398
f 177/186/398 173/192/399 178/187/400
f 173/192/399 174/193/401 178/187/400
f 178/187/400 174/193/401 179/188/402
f 174/193/401 175/194/403 179/188/402
f 179/188/402 175/194/403 180/189/404
s 23
f 7/7/107 40/45/109 171/190/405
f 171/190/405 40/45/109 181/195/406
f 171/190/405 181/195/406 172/191/407
f 172/191/407 181/195/406 182/196/408
f 172/191/407 182/196/408 173/192/409
f 173/192/409 182/196/408 183/197/410
f 173/192/409 183/197/410 174/193/411
f 174/193/411 183/197/410 184/198/412
f 174/193/411 184/198/412 175/194/413
f 175/194/413 184/198/412 185/199/414
s 19
f 40/45/89 42/48/91 181/195/415
f 181/195/415 42/48/91 186/200/416
f 181/195/415 186/200/416 182/196/417
f 182/196/417 186/200/416 187/201/418
f 182/196/417 187/201/418 183/197/419
f 183/197/419 187/201/418 188/202/420
f 183/197/419 188/202/420 184/198/421
f 184/198/421 188/202/420 189/203/422
f 184/198/421 189/203/422 185/199/423
f 185/199/423 189/203/422 190/204/424
s 3
f 42/48/116 34/40/11 186/200/425
f 186/200/425 34/40/11 176/185/426
f 186/200/425 176/185/426 187/201/427
f 187/201/427 176/185/426 177/186/428
f 187/201/427 177/186/428 188/202/429
f 188/202/429 177/186/428 178/187/430
f 188/202/429 178/187/430 189/203/431
f 189/203/431 178/187/430 179/188/432
f 189/203/431 179/188/432 190/204/433
f 190/204/433 179/188/432 180/189/434
s 44
f 67/74/435 69/75/436 191/205/437
f 191/205/437 69/75/436 192/206/438
s 45
f 236/254/439 237/255/440 235/253/441
f 235/253/441 237/255/440 238/256/442
s 22
f 75/82/104 194/208/443 77/83/106
f 77/83/106 194/208/443 193/207/444
s 46
f 202/220/445 210/224/446 206/216/447
s 47
f 206/216/447 210/224/446 214/228/448
s 48
f 71/77/449 195/210/450 74/80/451
f 74/80/451 195/210/450 196/209/452
s 47
f 202/232/453 206/236/454 210/244/455
s 46
f 210/244/455 206/236/454 214/240/456
s 24
f 79/85/113 82/88/114 197/211/457
f 197/211/457 82/88/114 198/212/458
s 49
f 240/257/459 239/258/460 242/260/461
f 242/260/461 239/258/460 241/259/462
s 50
f 67/74/463 199/217/464 75/82/465
f 75/82/465 199/217/464 203/213/466
f 203/213/466 199/217/464 204/214/467
f 204/214/467 199/217/464 200/218/468
f 204/214/467 200/218/468 205/215/469
f 205/215/469 200/218/468 201/219/470
f 205/215/469 201/219/470 206/216/471
f 206/216/471 201/219/470 202/220/472
s 51
f 207/221/473 208/222/474 199/217/475
f 199/217/475 208/222/474 200/218/476
f 208/222/474 209/223/477 200/218/476
f 200/218/476 209/223/477 201/219/478
f 209/223/477 210/224/479 201/219/478
f 201/219/478 210/224/479 202/220/480
s 32
f 191/205/201 194/208/202 207/221/481
f 207/221/481 194/208/202 211/225/482
f 211/225/482 212/226/483 207/221/481
f 207/221/481 212/226/483 208/222/484
f 212/226/483 213/227/485 208/222/484
f 208/222/484 213/227/485 209/223/486
f 213/227/485 214/228/487 209/223/486
f 209/223/486 214/228/487 210/224/488
s 22
f 194/208/443 75/82/104 211/225/489
f 211/225/489 75/82/104 203/213/490
f 211/225/489 203/213/490 212/226/491
f 212/226/491 203/213/490 204/214/492
f 212/226/491 204/214/492 213/227/493
f 213/227/493 204/214/492 205/215/494
f 213/227/493 205/215/494 214/228/495
f 214/228/495 205/215/494 206/216/496
s 52
f 71/77/497 79/85/498 215/229/499
f 215/229/499 79/85/498 218/233/500
f 218/233/500 219/234/501 215/229/499
f 215/229/499 219/234/501 216/230/502
f 219/234/501 220/235/503 216/230/502
f 216/230/502 220/235/503 217/231/504
f 220/235/503 206/236/505 217/231/504
f 217/231/504 206/236/505 202/232/506
s 24
f 197/211/457 221/237/507 79/85/113
f 79/85/113 221/237/507 218/233/508
f 221/237/507 222/238/509 218/233/508
f 218/233/508 222/238/509 219/234/510
f 222/238/509 223/239/511 219/234/510
f 219/234/510 223/239/511 220/235/512
f 223/239/511 214/240/513 220/235/512
f 220/235/512 214/240/513 206/236/514
s 33
f 195/210/214 224/241/515 197/211/216
f 197/211/216 224/241/515 221/237/516
f 221/237/516 224/241/515 222/238/517
f 222/238/517 224/241/515 225/242/518
f 222/238/517 225/242/518 223/239/519
f 223/239/519 225/242/518 226/243/520
f 223/239/519 226/243/520 214/240/521
f 214/240/521 226/243/520 210/244/522
s 53
f 224/241/523 215/229/524 225/242/525
f 225/242/525 215/229/524 216/230/526
f 225/242/525 216/230/526 226/243/527
f 226/243/527 216/230/526 217/231/528
f 226/243/527 217/231/528 210/244/529
f 210/244/529 217/231/528 202/232/530
s 54
f 77/83/531 228/246/532 69/75/533
f 69/75/533 228/246/532 227/245/534
s 22
f 77/83/106 193/207/444 228/246/535
f 228/246/535 193/207/444 229/247/536
s 32
f 193/207/200 192/206/199 229/247/537
f 229/247/537 192/206/199 230/248/538
s 44
f 69/75/436 227/245/539 192/206/438
f 192/206/438 227/245/539 230/248/540
s 55
f 82/88/541 74/80/542 232/249/543
f 232/249/543 74/80/542 231/250/544
s 48
f 74/80/451 196/209/452 231/250/545
f 231/250/545 196/209/452 233/251/546
s 33
f 198/212/215 234/252/547 196/209/213
f 196/209/213 234/252/547 233/251/548
s 24
f 82/88/114 232/249/549 198/212/458
f 198/212/458 232/249/549 234/252/550
s 54
f 228/246/532 236/254/551 227/245/534
f 227/245/534 236/254/551 235/253/552
s 22
f 228/246/535 229/247/536 236/254/553
f 236/254/553 229/247/536 237/255/554
s 32
f 230/248/538 238/256/555 229/247/537
f 229/247/537 238/256/555 237/255/556
s 44
f 230/248/540 227/245/539 238/256/557
f 238/256/557 227/245/539 235/253/558
s 55
f 232/249/543 231/250/544 240/257/559
f 240/257/559 231/250/544 239/258/560
s 48
f 233/251/546 241/259/561 231/250/545
f 231/250/545 241/259/561 239/258/562
s 33
f 233/251/548 234/252/547 241/259/563
f 241/259/563 234/252/547 242/260/564
s 24
f 232/249/549 240/257/565 234/252/550
f 234/252/550 240/257/565 242/260/566
s 56
f 43/50/567 243/263/568 44/49/569
f 44/49/569 243/263/568 245/261/570
f 243/263/568 244/264/571 245/261/570
f 245/261/570 244/264/571 246/262/572
s 20
f 43/50/126 51/58/146 243/263/573
f 243/263/573 51/58/146 247/265/574
f 243/263/573 247/265/574 244/264/575
f 244/264/575 247/265/574 248/266/576
s 57
f 247/265/577 249/267/578 248/266/579
f 248/266/579 249/267/578 250/268/580
s 3
f 44/49/130 245/261/581 52/57/150
f 52/57/150 245/261/581 249/267/582
f 245/261/581 246/262/583 249/267/582
f 249/267/582 246/262/583 250/268/584
s 58
f 47/53/585 48/54/586 251/269/587
f 251/269/587 48/54/586 252/271/588
f 251/269/587 252/271/588 244/270/589
f 244/270/589 252/271/588 246/272/590
s 3
f 48/54/136 56/62/156 252/271/591
f 252/271/591 56/62/156 253/273/592
f 252/271/591 253/273/592 246/272/593
f 246/272/593 253/273/592 250/274/594
s 59
f 254/275/595 248/276/596 253/273/597
f 253/273/597 248/276/596 250/274/598
s 23
f 47/53/140 251/269/599 55/61/160
f 55/61/160 251/269/599 254/275/600
f 251/269/599 244/270/601 254/275/600
f 254/275/600 244/270/601 248/276/602
s 48
f 55/61/603 259/294/604 56/62/605
f 56/62/605 259/294/604 260/295/606
s 61
f 55/61/607 254/275/608 259/294/609
f 259/294/609 254/275/608 255/293/610
s 62
f 254/275/611 253/273/612 255/293/613
f 255/293/613 253/273/612 256/296/614
s 3
f 56/62/156 260/295/615 253/273/592
f 253/273/592 260/295/615 256/296/616
s 44
f 51/58/617 52/57/618 258/288/619
f 258/288/619 52/57/618 257/287/620
s 3
f 52/57/150 249/267/582 257/287/621
f 257/287/621 249/267/582 256/286/622
s 64
f 247/265/623 255/285/624 249/267/625
f 249/267/625 255/285/624 256/286/626
s 20
f 51/58/146 258/288/627 247/265/574
f 247/265/574 258/288/627 255/285/628
s 48
f 260/290/606 259/289/604 71/283/449
f 71/283/449 259/289/604 195/284/450
s 65
f 261/291/629 260/290/630 215/282/631
f 215/282/631 260/290/630 71/283/632
s 53
f 262/292/633 261/291/634 224/281/523
f 224/281/523 261/291/634 215/282/524
s 66
f 262/292/635 224/281/636 259/289/637
f 259/289/637 224/281/636 195/284/638
s 61
f 255/293/610 258/297/639 259/294/609
f 259/294/609 258/297/639 262/298/640
s 3
f 256/296/616 260/295/615 257/300/641
f 257/300/641 260/295/615 261/299/642
s 61
f 262/298/640 258/297/639 207/278/643
f 207/278/643 258/297/639 191/279/644
s 51
f 262/298/645 207/278/473 261/299/646
f 261/299/646 207/278/473 199/277/475
s 3
f 261/299/642 199/277/647 257/300/641
f 257/300/641 199/277/647 67/280/648
s 44
f 257/300/620 67/280/435 258/297/619
f 258/297/619 67/280/435 191/279/437
