[gd_scene load_steps=5 format=2]

[ext_resource path="res://NPCs/_old/MoCap/_tests/arms_akimbo.glb" type="PackedScene" id=1]
[ext_resource path="res://Materials/black_material.tres" type="Material" id=2]
[ext_resource path="res://NPCs/_old/MoCap/_tests/sitting.anim" type="Animation" id=3]
[ext_resource path="res://NPCs/_old/MoCap/_tests/arms_akimbo.anim" type="Animation" id=4]





[node name="NeightborA" instance=ExtResource( 1 )]

[node name="afro01Mesh" parent="Game_engine/Skeleton" index="0"]
material/0 = ExtResource( 2 )

[node name="female1605Mesh" parent="Game_engine/Skeleton" index="1"]
material/0 = ExtResource( 2 )

[node name="male_casualsuit01Mesh" parent="Game_engine/Skeleton" index="2"]
material/0 = ExtResource( 2 )

[node name="shoes03Mesh" parent="Game_engine/Skeleton" index="3"]
material/0 = ExtResource( 2 )

[node name="AnimationPlayer" parent="." index="1"]
autoplay = "Game_engineiPi Default TakeLayer0"
anims/arms_akimbo = ExtResource( 4 )
anims/sitting = ExtResource( 3 )
