# Blender v3.2.0 OBJ File: 'terrain4.blend'
# www.blender.org
mtllib terrain_connectable_a_bottom.mtl
o Plane.001_Plane.002
v 0.000000 0.284518 -93.750000
v -93.750000 0.066870 0.000000
v -93.750000 0.066870 50.000000
v -50.000000 1.252967 -93.750000
v -93.750000 7.492589 -50.000000
v 50.000000 0.007567 -93.750000
v 25.000000 0.248256 -93.750000
v -93.750000 2.641402 -25.000000
v -75.000000 1.220328 -93.750000
v -93.750000 4.593959 -75.000000
v -93.750000 0.066870 75.000000
v -93.750000 0.066870 25.000000
v -25.000000 0.604211 -93.750000
v 75.000000 0.011105 -93.750000
v 0.000000 -0.037180 93.750000
v 93.750000 0.676971 0.000000
v 50.000000 0.557151 93.750000
v 93.750000 0.676971 50.000000
v -50.000000 0.066870 93.750000
v 93.750000 1.766654 -50.000000
v 93.750000 1.021802 -25.000000
v -25.000000 0.066870 93.750000
v -75.000000 0.066870 93.750000
v 75.000000 0.424527 93.750000
v 93.750000 0.676971 75.000000
v 25.000000 0.181201 93.750000
v 93.750000 0.676971 25.000000
v 93.750000 0.296298 -75.000000
v 93.750000 1.074159 -62.500000
v 62.500000 0.010316 -93.750000
v -37.500000 0.972846 -93.750000
v 93.750000 0.676971 37.500000
v 37.500000 0.431708 93.750000
v 12.500000 -0.004813 93.750000
v 87.500000 0.615956 93.750000
v 93.750000 0.676971 87.500000
v 62.500000 0.411251 93.750000
v -93.750000 0.066870 37.500000
v -93.750000 0.066870 12.500000
v -62.500000 0.066870 93.750000
v -87.500000 0.066870 93.750000
v -93.750000 0.066870 87.500000
v -93.750000 0.066870 62.500000
v -12.500000 0.038242 93.750000
v -37.500000 0.066870 93.750000
v -93.750000 7.271336 -62.500000
v -87.500000 0.835367 -93.750000
v -93.750000 1.537468 -87.500000
v -93.750000 0.640763 -12.500000
v -93.750000 5.250101 -37.500000
v 12.500000 0.359879 -93.750000
v 93.750000 0.690331 -12.500000
v 93.750000 1.508264 -37.500000
v 37.500000 0.070018 -93.750000
v -62.500000 1.367389 -93.750000
v 93.750000 0.676971 62.500000
v 93.750000 0.676971 12.500000
v -12.500000 0.333198 -93.750000
v 87.500000 0.011168 -93.750000
v 93.750000 0.033143 -87.500000
v 93.750000 0.111305 -81.250000
v 81.250000 0.011143 -93.750000
v -18.750000 0.441945 -93.750000
v 93.750000 0.676971 18.750000
v 93.750000 0.676971 68.750000
v -68.750000 1.329605 -93.750000
v 31.250000 0.152953 -93.750000
v 93.750000 1.267600 -31.250000
v 93.750000 0.676971 -6.250000
v 6.250000 0.331165 -93.750000
v -93.750000 3.923549 -31.250000
v -93.750000 6.517618 -43.750000
v -93.750000 0.142172 -6.250000
v -93.750000 1.510716 -18.750000
v -93.750000 2.949946 -81.250000
v -93.750000 0.592087 -93.750000
v -93.750000 7.756433 -56.250000
v -93.750000 6.140676 -68.750000
v -31.250000 0.066870 93.750000
v -43.750000 0.066870 93.750000
v -6.250000 -0.005204 93.750000
v -18.750000 0.066870 93.750000
v -93.750000 0.066870 68.750000
v -93.750000 0.066870 56.250000
v -81.250000 0.066870 93.750000
v -93.750000 0.066870 93.750000
v -93.750000 0.066870 81.250000
v -56.250000 0.066870 93.750000
v -68.750000 0.066870 93.750000
v -93.750000 0.066870 18.750000
v -93.750000 0.066870 6.250000
v -93.750000 0.066870 43.750000
v -93.750000 0.066870 31.250000
v 68.750000 0.316706 93.750000
v 56.250000 0.512000 93.750000
v 93.750000 0.676971 93.750000
v 81.250000 0.528042 93.750000
v 18.750000 0.071318 93.750000
v 6.250000 -0.040361 93.750000
v 43.750000 0.522091 93.750000
v 31.250000 0.309207 93.750000
v 93.750000 0.676971 43.750000
v -43.750000 1.129623 -93.750000
v 56.250000 0.009175 -93.750000
v 93.750000 1.511168 -56.250000
v 93.750000 0.628386 -68.750000
v 68.750000 0.010956 -93.750000
v -31.250000 0.793674 -93.750000
v 93.750000 0.676971 31.250000
v 93.750000 0.676971 81.250000
v -81.250000 1.050509 -93.750000
v 18.750000 0.326569 -93.750000
v 93.750000 0.813071 -18.750000
v 93.750000 1.709807 -43.750000
v 43.750000 0.020221 -93.750000
v -56.250000 1.333948 -93.750000
v 93.750000 0.676971 56.250000
v 93.750000 0.676971 6.250000
v -6.250000 0.280741 -93.750000
v 93.750000 0.011200 -93.750000
v -1.380503 -3.766191 -95.164261
v -95.130501 -3.773034 -1.414257
v -95.130501 -3.773034 48.585743
v -51.380505 -3.735745 -95.164261
v -95.130501 -3.539582 -51.414257
v 48.619495 -3.774899 -95.164261
v 23.619497 -3.767333 -95.164261
v -95.130501 -3.692096 -26.414257
v -76.380501 -3.736773 -95.164261
v -95.130501 -3.630711 -76.414261
v -95.130501 -3.773034 73.585739
v -95.130501 -3.773034 23.585743
v -26.380503 -3.756142 -95.164261
v 73.619499 -3.774788 -95.164261
v -1.380503 -3.776306 92.335739
v 92.369499 -3.753853 -1.414257
v 48.619495 -3.757620 92.335739
v 92.369499 -3.753853 48.585743
v -51.380505 -3.773034 92.335739
v 92.369499 -3.719596 -51.414257
v 92.369499 -3.743012 -26.414257
v -26.380503 -3.773034 92.335739
v -76.380501 -3.773034 92.335739
v 73.619499 -3.761791 92.335739
v 92.369499 -3.753853 73.585739
v 23.619497 -3.769440 92.335739
v 92.369499 -3.753853 23.585743
v 92.369499 -3.765821 -76.414261
v 92.369499 -3.741367 -63.914257
v 61.119495 -3.774814 -95.164261
v -38.880505 -3.744552 -95.164261
v 92.369499 -3.753853 36.085743
v 36.119495 -3.761564 92.335739
v 11.119497 -3.775289 92.335739
v 86.119499 -3.755773 92.335739
v 92.369499 -3.753853 86.085739
v 61.119495 -3.762208 92.335739
v -95.130501 -3.773034 36.085743
v -95.130501 -3.773034 11.085744
v -63.880505 -3.773034 92.335739
v -88.880501 -3.773034 92.335739
v -95.130501 -3.773034 86.085739
v -95.130501 -3.773034 61.085743
v -13.880503 -3.773934 92.335739
v -38.880505 -3.773034 92.335739
v -95.130501 -3.546538 -63.914257
v -88.880501 -3.748875 -95.164261
v -95.130501 -3.726802 -88.914261
v -95.130501 -3.754992 -13.914257
v -95.130501 -3.610083 -38.914257
v 11.119497 -3.763824 -95.164261
v 92.369499 -3.753434 -13.914257
v 92.369499 -3.727719 -38.914257
v 36.119495 -3.772936 -95.164261
v -63.880505 -3.732148 -95.164261
v 92.369499 -3.753853 61.085743
v 92.369499 -3.753853 11.085744
v -13.880503 -3.764661 -95.164261
v 86.119499 -3.774786 -95.164261
v 92.369499 -3.774096 -88.914261
v 92.369499 -3.771638 -82.664261
v 79.869499 -3.774786 -95.164261
v -20.130503 -3.761243 -95.164261
v 92.369499 -3.753853 17.335743
v 92.369499 -3.753853 67.335739
v -70.130501 -3.733335 -95.164261
v 29.869497 -3.770329 -95.164261
v 92.369499 -3.735285 -32.664257
v 92.369499 -3.753853 -7.664257
v 4.869497 -3.764725 -95.164261
v -95.130501 -3.651787 -32.664257
v -95.130501 -3.570233 -45.164257
v -95.130501 -3.770668 -7.664257
v -95.130501 -3.727642 -20.164257
v -95.130501 -3.682395 -82.664261
v -95.130501 -3.756522 -95.164261
v -95.130501 -3.531286 -57.664257
v -95.130501 -3.582083 -70.164261
v -32.630505 -3.773034 92.335739
v -45.130505 -3.773034 92.335739
v -7.630503 -3.775301 92.335739
v -20.130503 -3.773034 92.335739
v -95.130501 -3.773034 67.335739
v -95.130501 -3.773034 54.835743
v -82.630501 -3.773034 92.335739
v -95.130501 -3.773034 92.335739
v -95.130501 -3.773034 79.835739
v -57.630505 -3.773034 92.335739
v -70.130501 -3.773034 92.335739
v -95.130501 -3.773034 17.335743
v -95.130501 -3.773034 4.835743
v -95.130501 -3.773034 42.335743
v -95.130501 -3.773034 29.835743
v 67.369499 -3.765180 92.335739
v 54.869495 -3.759041 92.335739
v 92.369499 -3.753853 92.335739
v 79.869499 -3.758536 92.335739
v 17.369497 -3.772896 92.335739
v 4.869497 -3.776406 92.335739
v 42.369495 -3.758723 92.335739
v 29.869497 -3.765417 92.335739
v 92.369499 -3.753853 42.335743
v -45.130505 -3.739623 -95.164261
v 54.869495 -3.774849 -95.164261
v 92.369499 -3.727629 -57.664257
v 92.369499 -3.755383 -70.164261
v 67.369499 -3.774793 -95.164261
v -32.630505 -3.750185 -95.164261
v 92.369499 -3.753853 29.835743
v 92.369499 -3.753853 79.835739
v -82.630501 -3.742111 -95.164261
v 17.369497 -3.764870 -95.164261
v 92.369499 -3.749576 -20.164257
v 92.369499 -3.721384 -45.164257
v 42.369495 -3.774502 -95.164261
v -57.630505 -3.733200 -95.164261
v 92.369499 -3.753853 54.835743
v 92.369499 -3.753853 4.835743
v -7.630503 -3.766311 -95.164261
v 92.369499 -3.774785 -95.164261
vt 0.968750 0.250000
vt 0.968750 0.218750
vt 0.968750 0.218750
vt 0.968750 0.250000
vt 0.968750 0.937500
vt 0.968750 0.906250
vt 0.968750 0.906250
vt 0.968750 0.937500
vt 0.031250 0.312500
vt 0.031250 0.312500
vt 0.031250 0.281250
vt 0.031250 0.281250
vt 0.468750 0.031250
vt 0.437500 0.031250
vt 0.437500 0.031250
vt 0.468750 0.031250
vt 0.968750 0.187500
vt 0.968750 0.187500
vt 0.968750 0.875000
vt 0.968750 0.875000
vt 0.031250 0.250000
vt 0.031250 0.250000
vt 0.500000 0.031250
vt 0.500000 0.031250
vt 0.031250 0.937500
vt 0.031250 0.937500
vt 0.031250 0.906250
vt 0.031250 0.906250
vt 0.968750 0.562500
vt 0.968750 0.531250
vt 0.968750 0.531250
vt 0.968750 0.562500
vt 0.031250 0.875000
vt 0.031250 0.875000
vt 0.968750 0.843750
vt 0.968750 0.843750
vt 0.968750 0.500000
vt 0.968750 0.500000
vt 0.031250 0.375000
vt 0.031250 0.375000
vt 0.031250 0.343750
vt 0.031250 0.343750
vt 0.375000 0.031250
vt 0.375000 0.031250
vt 0.406250 0.031250
vt 0.406250 0.031250
vt 0.968750 0.125000
vt 0.968750 0.093750
vt 0.968750 0.093750
vt 0.968750 0.125000
vt 0.968750 0.812500
vt 0.968750 0.812500
vt 0.625000 0.968750
vt 0.656250 0.968750
vt 0.656250 0.968750
vt 0.625000 0.968750
vt 0.968750 0.062500
vt 0.968750 0.062500
vt 0.031250 0.968750
vt 0.031250 0.968750
vt 0.687500 0.968750
vt 0.687500 0.968750
vt 0.062500 0.968750
vt 0.062500 0.968750
vt 0.312500 0.968750
vt 0.343750 0.968750
vt 0.343750 0.968750
vt 0.312500 0.968750
vt 0.531250 0.968750
vt 0.531250 0.968750
vt 0.500000 0.968750
vt 0.500000 0.968750
vt 0.968750 0.625000
vt 0.968750 0.593750
vt 0.968750 0.593750
vt 0.968750 0.625000
vt 0.375000 0.968750
vt 0.375000 0.968750
vt 0.875000 0.968750
vt 0.906250 0.968750
vt 0.906250 0.968750
vt 0.875000 0.968750
vt 0.562500 0.968750
vt 0.562500 0.968750
vt 0.093750 0.968750
vt 0.093750 0.968750
vt 0.937500 0.968750
vt 0.937500 0.968750
vt 0.125000 0.968750
vt 0.125000 0.968750
vt 0.968750 0.468750
vt 0.968750 0.468750
vt 0.031250 0.812500
vt 0.031250 0.812500
vt 0.031250 0.781250
vt 0.031250 0.781250
vt 0.968750 0.437500
vt 0.968750 0.437500
vt 0.031250 0.750000
vt 0.031250 0.750000
vt 0.812500 0.968750
vt 0.843750 0.968750
vt 0.843750 0.968750
vt 0.812500 0.968750
vt 0.562500 0.031250
vt 0.562500 0.031250
vt 0.593750 0.031250
vt 0.593750 0.031250
vt 0.031250 0.187500
vt 0.031250 0.187500
vt 0.031250 0.156250
vt 0.031250 0.156250
vt 0.625000 0.031250
vt 0.625000 0.031250
vt 0.031250 0.843750
vt 0.031250 0.843750
vt 0.031250 0.125000
vt 0.031250 0.125000
vt 0.531250 0.031250
vt 0.531250 0.031250
vt 0.968750 0.156250
vt 0.968750 0.156250
vt 0.031250 0.218750
vt 0.031250 0.218750
vt 0.968750 0.750000
vt 0.968750 0.718750
vt 0.968750 0.718750
vt 0.968750 0.750000
vt 0.968750 0.687500
vt 0.968750 0.656250
vt 0.968750 0.656250
vt 0.968750 0.687500
vt 0.437500 0.968750
vt 0.468750 0.968750
vt 0.468750 0.968750
vt 0.437500 0.968750
vt 0.406250 0.968750
vt 0.406250 0.968750
vt 0.968750 0.375000
vt 0.968750 0.343750
vt 0.968750 0.343750
vt 0.968750 0.375000
vt 0.062500 0.031250
vt 0.062500 0.031250
vt 0.093750 0.031250
vt 0.093750 0.031250
vt 0.968750 0.968750
vt 0.968750 0.968750
vt 0.156250 0.968750
vt 0.156250 0.968750
vt 0.031250 0.687500
vt 0.031250 0.687500
vt 0.031250 0.656250
vt 0.031250 0.656250
vt 0.968750 0.312500
vt 0.968750 0.312500
vt 0.125000 0.031250
vt 0.125000 0.031250
vt 0.187500 0.968750
vt 0.187500 0.968750
vt 0.031250 0.625000
vt 0.031250 0.625000
vt 0.031250 0.062500
vt 0.031250 0.062500
vt 0.031250 0.031250
vt 0.031250 0.031250
vt 0.687500 0.031250
vt 0.687500 0.031250
vt 0.718750 0.031250
vt 0.718750 0.031250
vt 0.750000 0.031250
vt 0.750000 0.031250
vt 0.031250 0.718750
vt 0.031250 0.718750
vt 0.031250 0.093750
vt 0.031250 0.093750
vt 0.718750 0.968750
vt 0.718750 0.968750
vt 0.656250 0.031250
vt 0.656250 0.031250
vt 0.750000 0.968750
vt 0.750000 0.968750
vt 0.187500 0.031250
vt 0.187500 0.031250
vt 0.218750 0.031250
vt 0.218750 0.031250
vt 0.250000 0.031250
vt 0.250000 0.031250
vt 0.781250 0.968750
vt 0.781250 0.968750
vt 0.843750 0.031250
vt 0.812500 0.031250
vt 0.812500 0.031250
vt 0.843750 0.031250
vt 0.031250 0.562500
vt 0.031250 0.562500
vt 0.031250 0.531250
vt 0.031250 0.531250
vt 0.156250 0.031250
vt 0.156250 0.031250
vt 0.875000 0.031250
vt 0.875000 0.031250
vt 0.031250 0.500000
vt 0.031250 0.500000
vt 0.968750 0.406250
vt 0.968750 0.406250
vt 0.031250 0.593750
vt 0.031250 0.593750
vt 0.781250 0.031250
vt 0.781250 0.031250
vt 0.218750 0.968750
vt 0.218750 0.968750
vt 0.250000 0.968750
vt 0.250000 0.968750
vt 0.968750 0.031250
vt 0.968750 0.031250
vt 0.968750 0.281250
vt 0.968750 0.281250
vt 0.031250 0.437500
vt 0.031250 0.437500
vt 0.031250 0.406250
vt 0.031250 0.406250
vt 0.312500 0.031250
vt 0.312500 0.031250
vt 0.343750 0.031250
vt 0.343750 0.031250
vt 0.937500 0.031250
vt 0.937500 0.031250
vt 0.968750 0.781250
vt 0.968750 0.781250
vt 0.906250 0.031250
vt 0.906250 0.031250
vt 0.593750 0.968750
vt 0.593750 0.968750
vt 0.031250 0.468750
vt 0.031250 0.468750
vt 0.281250 0.031250
vt 0.281250 0.031250
vt 0.281250 0.968750
vt 0.281250 0.968750
vn 0.9547 -0.2975 0.0000
vn 0.9409 -0.3386 0.0022
vn -0.9410 0.3383 0.0000
vn -0.0013 -0.3491 0.9371
vn 0.9440 -0.3298 0.0050
vn -0.0009 -0.3522 0.9359
vn -0.9723 0.2321 -0.0271
vn 0.9549 -0.2970 -0.0003
vn -0.9820 0.1873 -0.0254
vn 0.9496 -0.3133 0.0086
vn 0.0000 -0.3456 0.9384
vn 0.9568 -0.2905 0.0107
vn 0.0026 0.3348 -0.9423
vn -0.0008 -0.3465 0.9381
vn -0.9592 0.2820 -0.0220
vn 0.0023 0.3415 -0.9399
vn -0.0061 0.3036 -0.9528
vn 0.0043 0.2909 -0.9567
vn -0.0013 0.3284 -0.9445
vn 0.9593 -0.2825 -0.0049
vn 0.0047 0.3014 -0.9535
vn -0.0000 0.3499 -0.9368
vn -0.0008 0.3256 -0.9455
vn 0.9563 -0.2922 -0.0030
vn -0.0052 0.2902 -0.9570
vn -0.0039 0.2796 -0.9601
vn -0.9922 0.1246 -0.0050
vn -0.9925 0.1224 0.0027
vn -0.0000 0.3500 -0.9368
vn 0.0022 -0.3489 0.9372
vn 0.0031 -0.3421 0.9397
vn -0.9877 0.1551 -0.0198
vn -0.9908 0.1349 -0.0126
vn -0.0001 -0.3539 0.9353
vn 0.0010 -0.3529 0.9356
vn 0.9695 -0.2449 -0.0011
vn 0.9659 -0.2590 -0.0051
vn 0.0014 0.3276 -0.9448
vn 0.0042 0.3124 -0.9499
vn 0.9684 -0.2495 -0.0041
vn 0.9627 -0.2705 -0.0055
vn -0.0001 0.3298 -0.9441
vn 0.0029 0.3217 -0.9468
vn 0.9397 -0.3419 0.0006
vn -0.0025 0.2723 -0.9622
vn -0.9865 0.1627 0.0178
vn -0.0008 0.2683 -0.9633
vn -0.9814 0.1907 0.0202
vn 0.0024 -0.3173 0.9483
vn 0.0009 -0.3128 0.9498
vn -0.9917 0.1283 0.0103
vn -0.9898 0.1420 0.0149
vn 0.0014 0.3468 -0.9379
vn 0.0035 -0.3335 0.9427
vn 0.0004 0.3496 -0.9369
vn 0.0033 -0.3247 0.9458
vn -0.0000 0.3502 -0.9367
vn -0.0000 0.3501 -0.9367
vn -0.0025 -0.3234 0.9463
vn -0.9502 0.3114 0.0128
vn 0.0029 -0.3245 0.9459
vn -0.9423 0.3348 0.0021
vn -0.9736 0.2271 0.0212
vn -0.0012 -0.3126 0.9499
vn -0.9626 0.2702 0.0194
vn -0.0026 -0.3168 0.9485
vn 0.0007 0.2678 -0.9635
vn 0.0018 0.2703 -0.9628
vn 0.0015 -0.3064 0.9519
vn 0.9636 -0.2673 0.0096
vn 0.0027 -0.3174 0.9483
vn 0.0009 0.3253 -0.9456
vn 0.9681 -0.2506 0.0053
vn 0.0023 -0.3112 0.9503
vn 0.0021 0.3288 -0.9444
vn 0.0028 0.2751 -0.9614
vn 0.0036 0.2820 -0.9594
usemtl None
s off
f 18/1/1 117/2/1 237/3/1 138/4/1
f 60/5/2 61/6/2 181/7/2 180/8/2
f 38/9/3 158/10/3 212/11/3 92/12/3
f 81/13/4 44/14/4 164/15/4 201/16/4
f 117/2/1 56/17/1 176/18/1 237/3/1
f 61/6/5 28/19/5 148/20/5 181/7/5
f 92/12/3 212/11/3 123/21/3 3/22/3
f 15/23/6 81/13/6 201/16/6 135/24/6
f 48/25/7 168/26/7 195/27/7 75/28/7
f 52/29/8 69/30/8 189/31/8 172/32/8
f 75/28/9 195/27/9 130/33/9 10/34/9
f 28/19/10 106/35/10 226/36/10 148/20/10
f 69/30/1 16/37/1 136/38/1 189/31/1
f 12/39/3 132/40/3 213/41/3 93/42/3
f 22/43/11 142/44/11 202/45/11 82/46/11
f 25/47/1 110/48/1 230/49/1 145/50/1
f 93/42/3 213/41/3 158/10/3 38/9/3
f 106/35/12 29/51/12 149/52/12 226/36/12
f 7/53/13 67/54/13 187/55/13 127/56/13
f 44/14/14 82/46/14 202/45/14 164/15/14
f 110/48/1 36/57/1 156/58/1 230/49/1
f 76/59/15 196/60/15 168/26/15 48/25/15
f 67/54/16 54/61/16 174/62/16 187/55/16
f 47/63/17 167/64/17 196/60/17 76/59/17
f 31/65/18 108/66/18 228/67/18 151/68/18
f 70/69/19 190/70/19 121/71/19 1/72/19
f 21/73/20 113/74/20 233/75/20 141/76/20
f 108/66/21 13/77/21 133/78/21 228/67/21
f 14/79/22 62/80/22 182/81/22 134/82/22
f 70/69/23 51/83/23 171/84/23 190/70/23
f 113/74/24 52/29/24 172/32/24 233/75/24
f 111/85/25 231/86/25 167/64/25 47/63/25
f 62/80/22 59/87/22 179/88/22 182/81/22
f 9/89/26 129/90/26 231/86/26 111/85/26
f 16/37/1 118/91/1 238/92/1 136/38/1
f 46/93/27 166/94/27 197/95/27 77/96/27
f 118/91/1 57/97/1 177/98/1 238/92/1
f 77/96/28 197/95/28 125/99/28 5/100/28
f 30/101/29 107/102/29 227/103/29 150/104/29
f 34/105/30 154/106/30 218/107/30 98/108/30
f 107/102/22 14/79/22 134/82/22 227/103/22
f 43/109/3 163/110/3 203/111/3 83/112/3
f 98/108/31 218/107/31 146/113/31 26/114/31
f 10/34/32 130/33/32 198/115/32 78/116/32
f 83/112/3 203/111/3 131/117/3 11/118/3
f 78/116/33 198/115/33 166/94/33 46/93/33
f 99/119/34 15/23/34 135/24/34 219/120/34
f 56/17/1 65/121/1 185/122/1 176/18/1
f 3/22/3 123/21/3 204/123/3 84/124/3
f 99/119/35 219/120/35 154/106/35 34/105/35
f 65/121/1 25/47/1 145/50/1 185/122/1
f 84/124/3 204/123/3 163/110/3 43/109/3
f 20/125/36 114/126/36 234/127/36 140/128/36
f 53/129/37 68/130/37 188/131/37 173/132/37
f 58/133/38 119/134/38 239/135/38 178/136/38
f 13/77/39 63/137/39 183/138/39 133/78/39
f 114/126/40 53/129/40 173/132/40 234/127/40
f 68/130/41 21/73/41 141/76/41 188/131/41
f 119/134/42 1/72/42 121/71/42 239/135/42
f 63/137/43 58/133/43 178/136/43 183/138/43
f 27/139/1 109/140/1 229/141/1 147/142/1
f 41/143/11 161/144/11 205/145/11 85/146/11
f 120/147/44 60/5/44 180/8/44 240/148/44
f 66/149/45 186/150/45 129/90/45 9/89/45
f 50/151/46 170/152/46 191/153/46 71/154/46
f 109/140/1 32/155/1 152/156/1 229/141/1
f 85/146/11 205/145/11 143/157/11 23/158/11
f 59/87/22 120/147/22 240/148/22 179/88/22
f 55/159/47 175/160/47 186/150/47 66/149/47
f 71/154/48 191/153/48 128/161/48 8/162/48
f 42/163/3 162/164/3 206/165/3 86/166/3
f 33/167/49 153/168/49 220/169/49 100/170/49
f 86/166/11 206/165/11 161/144/11 41/143/11
f 100/170/50 220/169/50 137/171/50 17/172/50
f 5/100/51 125/99/51 192/173/51 72/174/51
f 11/118/3 131/117/3 207/175/3 87/176/3
f 72/174/52 192/173/52 170/152/52 50/151/52
f 87/176/3 207/175/3 162/164/3 42/163/3
f 54/61/53 115/177/53 235/178/53 174/62/53
f 26/114/54 146/113/54 221/179/54 101/180/54
f 115/177/55 6/181/55 126/182/55 235/178/55
f 101/180/56 221/179/56 153/168/56 33/167/56
f 40/183/11 160/184/11 208/185/11 88/186/11
f 88/186/11 208/185/11 139/187/11 19/188/11
f 6/181/57 104/189/57 224/190/57 126/182/57
f 104/189/58 30/101/58 150/104/58 224/190/58
f 94/191/59 37/192/59 157/193/59 214/194/59
f 49/195/60 169/196/60 193/197/60 73/198/60
f 23/158/11 143/157/11 209/199/11 89/200/11
f 94/191/61 214/194/61 144/201/61 24/202/61
f 73/198/62 193/197/62 122/203/62 2/204/62
f 89/200/11 209/199/11 160/184/11 40/183/11
f 57/97/1 64/205/1 184/206/1 177/98/1
f 64/205/1 27/139/1 147/142/1 184/206/1
f 8/162/63 128/161/63 194/207/63 74/208/63
f 17/172/64 137/171/64 215/209/64 95/210/64
f 74/208/65 194/207/65 169/196/65 49/195/65
f 37/192/66 95/210/66 215/209/66 157/193/66
f 55/159/67 116/211/67 236/212/67 175/160/67
f 116/211/68 4/213/68 124/214/68 236/212/68
f 36/57/1 96/215/1 216/216/1 156/58/1
f 32/155/1 102/217/1 222/218/1 152/156/1
f 39/219/3 159/220/3 210/221/3 90/222/3
f 45/223/11 165/224/11 199/225/11 79/226/11
f 35/227/69 155/228/69 216/216/69 96/215/69
f 102/217/1 18/1/1 138/4/1 222/218/1
f 90/222/3 210/221/3 132/40/3 12/39/3
f 79/226/11 199/225/11 142/44/11 22/43/11
f 29/51/70 105/229/70 225/230/70 149/52/70
f 24/202/71 144/201/71 217/231/71 97/232/71
f 51/83/72 112/233/72 232/234/72 171/84/72
f 2/204/3 122/203/3 211/235/3 91/236/3
f 105/229/73 20/125/73 140/128/73 225/230/73
f 19/188/11 139/187/11 200/237/11 80/238/11
f 97/232/74 217/231/74 155/228/74 35/227/74
f 112/233/75 7/53/75 127/56/75 232/234/75
f 91/236/3 211/235/3 159/220/3 39/219/3
f 80/238/11 200/237/11 165/224/11 45/223/11
f 4/213/76 103/239/76 223/240/76 124/214/76
f 103/239/77 31/65/77 151/68/77 223/240/77
