[gd_scene load_steps=4 format=2]

[ext_resource path="res://AudioNodes/RevealedItems/Revealed_Item.gd" type="Script" id=1]
[ext_resource path="res://Sprites/_old/EmergeHole.png" type="Texture" id=2]



[sub_resource type="Animation" id=1]
resource_name = "anim"
length = 1.5
loop = true
tracks/0/type = "value"
tracks/0/path = NodePath(".:frame")
tracks/0/interp = 1
tracks/0/loop_wrap = true
tracks/0/imported = false
tracks/0/enabled = true
tracks/0/keys = {
"times": PoolRealArray( 0, 1.5 ),
"transitions": PoolRealArray( 1, 1 ),
"update": 0,
"values": [ 0, 16 ]
}

[node name="Revealed_Item" type="Sprite3D"]
billboard = 1
alpha_cut = 2
texture = ExtResource( 2 )
vframes = 5
hframes = 4
frame = 16
script = ExtResource( 1 )

[node name="AnimationPlayer" type="AnimationPlayer" parent="."]
autoplay = "anim"
anims/anim = SubResource( 1 )
[connection signal="is_touched" from="." to="." method="_on_Revealed_Item_is_touched"]
[connection signal="is_untouched" from="." to="." method="_on_Revealed_Item_is_untouched"]
