[gd_scene load_steps=5 format=2]

[ext_resource path="res://AudioNodes/RevealedItems/Revealed_Item.gd" type="Script" id=1]
[ext_resource path="res://Sprites/_old/Moon.png" type="Texture" id=2]



[sub_resource type="Animation" id=1]
resource_name = "Berries_anim"
length = 1.5
loop = true
tracks/0/type = "value"
tracks/0/path = NodePath(".:frame")
tracks/0/interp = 1
tracks/0/loop_wrap = true
tracks/0/imported = false
tracks/0/enabled = true
tracks/0/keys = {
"times": PoolRealArray( 0, 1.5 ),
"transitions": PoolRealArray( 1, 1 ),
"update": 0,
"values": [ 0, 22 ]
}

[sub_resource type="Animation" id=2]
resource_name = "Moon_anim"
loop = true
tracks/0/type = "value"
tracks/0/path = NodePath(".:frame")
tracks/0/interp = 1
tracks/0/loop_wrap = true
tracks/0/imported = false
tracks/0/enabled = true
tracks/0/keys = {
"times": PoolRealArray( 0, 1 ),
"transitions": PoolRealArray( 1, 1 ),
"update": 0,
"values": [ 0, 22 ]
}

[node name="Revealed_Item" type="Sprite3D"]
modulate = Color( 0.113725, 0.0901961, 0.109804, 1 )
billboard = 1
alpha_cut = 2
texture = ExtResource( 2 )
vframes = 5
hframes = 5
frame = 2
script = ExtResource( 1 )

[node name="AnimationPlayer" type="AnimationPlayer" parent="."]
autoplay = "Moon_anim"
anims/Berries_anim = SubResource( 1 )
anims/Moon_anim = SubResource( 2 )
